ISO-10303-21;
HEADER;
/* Generated by software containing ST-Developer
 * from STEP Tools, Inc. (www.steptools.com) 
 */

FILE_DESCRIPTION(
/* description */ (''),
/* implementation_level */ '2;1');

FILE_NAME(
/* name */ 
'C:/Users/pract/OneDrive/11 - MODELOS 3D y DIMENSIONES/Modelos 3D Cime
ch/Poleas dentadas y lisas/005035 Polea GT2-20 (con rodamientos, sin d
ientes) (D.I. 5mm) (B m\X\E1x 6.35mm).step',
/* time_stamp */ '2020-06-10T17:12:51-04:00',
/* author */ (''),
/* organization */ (''),
/* preprocessor_version */ 'ST-DEVELOPER v18.1',
/* originating_system */ 'Autodesk Translation Framework v9.3.0.1241',
/* authorisation */ '');

FILE_SCHEMA (('AUTOMOTIVE_DESIGN { 1 0 10303 214 3 1 1 }'));
ENDSEC;

DATA;
#10=MECHANICAL_DESIGN_GEOMETRIC_PRESENTATION_REPRESENTATION('',(#39,#40,
#41,#42,#43,#44,#45),#865);
#11=ITEM_DEFINED_TRANSFORMATION($,$,#496,#514);
#12=ITEM_DEFINED_TRANSFORMATION($,$,#505,#515);
#13=ITEM_DEFINED_TRANSFORMATION($,$,#495,#565);
#14=ITEM_DEFINED_TRANSFORMATION($,$,#516,#566);
#15=ITEM_DEFINED_TRANSFORMATION($,$,#516,#567);
#16=(
REPRESENTATION_RELATIONSHIP($,$,#887,#886)
REPRESENTATION_RELATIONSHIP_WITH_TRANSFORMATION(#11)
SHAPE_REPRESENTATION_RELATIONSHIP()
);
#17=(
REPRESENTATION_RELATIONSHIP($,$,#888,#886)
REPRESENTATION_RELATIONSHIP_WITH_TRANSFORMATION(#12)
SHAPE_REPRESENTATION_RELATIONSHIP()
);
#18=(
REPRESENTATION_RELATIONSHIP($,$,#886,#885)
REPRESENTATION_RELATIONSHIP_WITH_TRANSFORMATION(#13)
SHAPE_REPRESENTATION_RELATIONSHIP()
);
#19=(
REPRESENTATION_RELATIONSHIP($,$,#889,#885)
REPRESENTATION_RELATIONSHIP_WITH_TRANSFORMATION(#14)
SHAPE_REPRESENTATION_RELATIONSHIP()
);
#20=(
REPRESENTATION_RELATIONSHIP($,$,#889,#885)
REPRESENTATION_RELATIONSHIP_WITH_TRANSFORMATION(#15)
SHAPE_REPRESENTATION_RELATIONSHIP()
);
#21=CONTEXT_DEPENDENT_SHAPE_REPRESENTATION(#16,#879);
#22=CONTEXT_DEPENDENT_SHAPE_REPRESENTATION(#17,#880);
#23=CONTEXT_DEPENDENT_SHAPE_REPRESENTATION(#18,#882);
#24=CONTEXT_DEPENDENT_SHAPE_REPRESENTATION(#19,#883);
#25=CONTEXT_DEPENDENT_SHAPE_REPRESENTATION(#20,#884);
#26=NEXT_ASSEMBLY_USAGE_OCCURRENCE('Component3:1','Component3:1',
'Component3:1',#892,#893,'Component3:1');
#27=NEXT_ASSEMBLY_USAGE_OCCURRENCE('Component4:1','Component4:1',
'Component4:1',#892,#894,'Component4:1');
#28=NEXT_ASSEMBLY_USAGE_OCCURRENCE('Component1:1','Component1:1',
'Component1:1',#891,#892,'Component1:1');
#29=NEXT_ASSEMBLY_USAGE_OCCURRENCE('Component2:1','Component2:1',
'Component2:1',#891,#895,'Component2:1');
#30=NEXT_ASSEMBLY_USAGE_OCCURRENCE('Component2:2','Component2:2',
'Component2:2',#891,#895,'Component2:2');
#31=SHAPE_REPRESENTATION_RELATIONSHIP('SRR','None',#887,#35);
#32=SHAPE_REPRESENTATION_RELATIONSHIP('SRR','None',#888,#36);
#33=SHAPE_REPRESENTATION_RELATIONSHIP('SRR','None',#889,#37);
#34=SHAPE_REPRESENTATION_RELATIONSHIP('SRR','None',#885,#38);
#35=ADVANCED_BREP_SHAPE_REPRESENTATION('',(#46),#862);
#36=ADVANCED_BREP_SHAPE_REPRESENTATION('',(#47),#863);
#37=ADVANCED_BREP_SHAPE_REPRESENTATION('',(#48),#864);
#38=ADVANCED_BREP_SHAPE_REPRESENTATION('',(#49,#50,#51,#52),#860);
#39=STYLED_ITEM('',(#917),#46);
#40=STYLED_ITEM('',(#917),#47);
#41=STYLED_ITEM('',(#916),#48);
#42=STYLED_ITEM('',(#915),#49);
#43=STYLED_ITEM('',(#916),#50);
#44=STYLED_ITEM('',(#917),#51);
#45=STYLED_ITEM('',(#917),#52);
#46=MANIFOLD_SOLID_BREP('Body1',#453);
#47=MANIFOLD_SOLID_BREP('Body1',#454);
#48=MANIFOLD_SOLID_BREP('Body1',#455);
#49=MANIFOLD_SOLID_BREP('Body1',#456);
#50=MANIFOLD_SOLID_BREP('Body2',#457);
#51=MANIFOLD_SOLID_BREP('Body3',#458);
#52=MANIFOLD_SOLID_BREP('Body4',#459);
#53=LINE('',#743,#69);
#54=LINE('',#748,#70);
#55=LINE('',#758,#71);
#56=LINE('',#763,#72);
#57=LINE('',#771,#73);
#58=LINE('',#777,#74);
#59=LINE('',#785,#75);
#60=LINE('',#795,#76);
#61=LINE('',#799,#77);
#62=LINE('',#805,#78);
#63=LINE('',#813,#79);
#64=LINE('',#819,#80);
#65=LINE('',#831,#81);
#66=LINE('',#836,#82);
#67=LINE('',#845,#83);
#68=LINE('',#850,#84);
#69=VECTOR('',#584,5.);
#70=VECTOR('',#591,4.5);
#71=VECTOR('',#604,3.);
#72=VECTOR('',#611,2.5);
#73=VECTOR('',#622,3.);
#74=VECTOR('',#629,4.5);
#75=VECTOR('',#640,5.);
#76=VECTOR('',#653,9.);
#77=VECTOR('',#658,6.1);
#78=VECTOR('',#665,9.);
#79=VECTOR('',#676,3.);
#80=VECTOR('',#683,4.5);
#81=VECTOR('',#700,5.);
#82=VECTOR('',#707,4.5);
#83=VECTOR('',#718,3.);
#84=VECTOR('',#725,2.5);
#85=CYLINDRICAL_SURFACE('',#500,5.);
#86=CYLINDRICAL_SURFACE('',#504,4.5);
#87=CYLINDRICAL_SURFACE('',#509,3.);
#88=CYLINDRICAL_SURFACE('',#513,2.5);
#89=CYLINDRICAL_SURFACE('',#517,3.);
#90=CYLINDRICAL_SURFACE('',#520,4.5);
#91=CYLINDRICAL_SURFACE('',#525,5.);
#92=CYLINDRICAL_SURFACE('',#531,9.);
#93=CYLINDRICAL_SURFACE('',#534,6.1);
#94=CYLINDRICAL_SURFACE('',#536,9.);
#95=CYLINDRICAL_SURFACE('',#541,3.);
#96=CYLINDRICAL_SURFACE('',#544,4.5);
#97=CYLINDRICAL_SURFACE('',#552,5.);
#98=CYLINDRICAL_SURFACE('',#556,4.5);
#99=CYLINDRICAL_SURFACE('',#560,3.);
#100=CYLINDRICAL_SURFACE('',#564,2.5);
#101=FACE_BOUND('',#150,.T.);
#102=FACE_BOUND('',#153,.T.);
#103=FACE_BOUND('',#156,.T.);
#104=FACE_BOUND('',#159,.T.);
#105=FACE_BOUND('',#164,.T.);
#106=FACE_BOUND('',#166,.T.);
#107=FACE_BOUND('',#169,.T.);
#108=FACE_BOUND('',#172,.T.);
#109=FACE_BOUND('',#176,.T.);
#110=FACE_BOUND('',#178,.T.);
#111=FACE_BOUND('',#182,.T.);
#112=FACE_BOUND('',#184,.T.);
#113=FACE_BOUND('',#186,.T.);
#114=FACE_BOUND('',#189,.T.);
#115=FACE_BOUND('',#192,.T.);
#116=FACE_BOUND('',#195,.T.);
#117=FACE_OUTER_BOUND('',#149,.T.);
#118=FACE_OUTER_BOUND('',#151,.T.);
#119=FACE_OUTER_BOUND('',#152,.T.);
#120=FACE_OUTER_BOUND('',#154,.T.);
#121=FACE_OUTER_BOUND('',#155,.T.);
#122=FACE_OUTER_BOUND('',#157,.T.);
#123=FACE_OUTER_BOUND('',#158,.T.);
#124=FACE_OUTER_BOUND('',#160,.T.);
#125=FACE_OUTER_BOUND('',#161,.T.);
#126=FACE_OUTER_BOUND('',#162,.T.);
#127=FACE_OUTER_BOUND('',#163,.T.);
#128=FACE_OUTER_BOUND('',#165,.T.);
#129=FACE_OUTER_BOUND('',#167,.T.);
#130=FACE_OUTER_BOUND('',#168,.T.);
#131=FACE_OUTER_BOUND('',#170,.T.);
#132=FACE_OUTER_BOUND('',#171,.T.);
#133=FACE_OUTER_BOUND('',#173,.T.);
#134=FACE_OUTER_BOUND('',#174,.T.);
#135=FACE_OUTER_BOUND('',#175,.T.);
#136=FACE_OUTER_BOUND('',#177,.T.);
#137=FACE_OUTER_BOUND('',#179,.T.);
#138=FACE_OUTER_BOUND('',#180,.T.);
#139=FACE_OUTER_BOUND('',#181,.T.);
#140=FACE_OUTER_BOUND('',#183,.T.);
#141=FACE_OUTER_BOUND('',#185,.T.);
#142=FACE_OUTER_BOUND('',#187,.T.);
#143=FACE_OUTER_BOUND('',#188,.T.);
#144=FACE_OUTER_BOUND('',#190,.T.);
#145=FACE_OUTER_BOUND('',#191,.T.);
#146=FACE_OUTER_BOUND('',#193,.T.);
#147=FACE_OUTER_BOUND('',#194,.T.);
#148=FACE_OUTER_BOUND('',#196,.T.);
#149=EDGE_LOOP('',(#309));
#150=EDGE_LOOP('',(#310));
#151=EDGE_LOOP('',(#311,#312,#313,#314));
#152=EDGE_LOOP('',(#315));
#153=EDGE_LOOP('',(#316));
#154=EDGE_LOOP('',(#317,#318,#319,#320));
#155=EDGE_LOOP('',(#321));
#156=EDGE_LOOP('',(#322));
#157=EDGE_LOOP('',(#323,#324,#325,#326));
#158=EDGE_LOOP('',(#327));
#159=EDGE_LOOP('',(#328));
#160=EDGE_LOOP('',(#329,#330,#331,#332));
#161=EDGE_LOOP('',(#333,#334,#335,#336));
#162=EDGE_LOOP('',(#337,#338,#339,#340));
#163=EDGE_LOOP('',(#341));
#164=EDGE_LOOP('',(#342));
#165=EDGE_LOOP('',(#343));
#166=EDGE_LOOP('',(#344));
#167=EDGE_LOOP('',(#345,#346,#347,#348));
#168=EDGE_LOOP('',(#349));
#169=EDGE_LOOP('',(#350));
#170=EDGE_LOOP('',(#351,#352,#353,#354));
#171=EDGE_LOOP('',(#355));
#172=EDGE_LOOP('',(#356));
#173=EDGE_LOOP('',(#357,#358,#359,#360));
#174=EDGE_LOOP('',(#361,#362,#363,#364));
#175=EDGE_LOOP('',(#365));
#176=EDGE_LOOP('',(#366));
#177=EDGE_LOOP('',(#367));
#178=EDGE_LOOP('',(#368));
#179=EDGE_LOOP('',(#369,#370,#371,#372));
#180=EDGE_LOOP('',(#373,#374,#375,#376));
#181=EDGE_LOOP('',(#377));
#182=EDGE_LOOP('',(#378));
#183=EDGE_LOOP('',(#379));
#184=EDGE_LOOP('',(#380));
#185=EDGE_LOOP('',(#381));
#186=EDGE_LOOP('',(#382));
#187=EDGE_LOOP('',(#383,#384,#385,#386));
#188=EDGE_LOOP('',(#387));
#189=EDGE_LOOP('',(#388));
#190=EDGE_LOOP('',(#389,#390,#391,#392));
#191=EDGE_LOOP('',(#393));
#192=EDGE_LOOP('',(#394));
#193=EDGE_LOOP('',(#395,#396,#397,#398));
#194=EDGE_LOOP('',(#399));
#195=EDGE_LOOP('',(#400));
#196=EDGE_LOOP('',(#401,#402,#403,#404));
#197=CIRCLE('',#498,5.);
#198=CIRCLE('',#499,4.5);
#199=CIRCLE('',#501,5.);
#200=CIRCLE('',#503,4.5);
#201=CIRCLE('',#507,3.);
#202=CIRCLE('',#508,2.5);
#203=CIRCLE('',#510,3.);
#204=CIRCLE('',#512,2.5);
#205=CIRCLE('',#518,3.);
#206=CIRCLE('',#519,3.);
#207=CIRCLE('',#521,4.5);
#208=CIRCLE('',#522,4.5);
#209=CIRCLE('',#526,5.);
#210=CIRCLE('',#527,5.);
#211=CIRCLE('',#529,9.);
#212=CIRCLE('',#530,6.1);
#213=CIRCLE('',#532,9.);
#214=CIRCLE('',#535,6.1);
#215=CIRCLE('',#537,9.);
#216=CIRCLE('',#538,9.);
#217=CIRCLE('',#542,3.);
#218=CIRCLE('',#543,3.);
#219=CIRCLE('',#545,4.5);
#220=CIRCLE('',#546,4.5);
#221=CIRCLE('',#550,5.);
#222=CIRCLE('',#551,4.5);
#223=CIRCLE('',#553,5.);
#224=CIRCLE('',#555,4.5);
#225=CIRCLE('',#558,3.);
#226=CIRCLE('',#559,2.5);
#227=CIRCLE('',#561,3.);
#228=CIRCLE('',#563,2.5);
#229=VERTEX_POINT('',#736);
#230=VERTEX_POINT('',#738);
#231=VERTEX_POINT('',#741);
#232=VERTEX_POINT('',#745);
#233=VERTEX_POINT('',#751);
#234=VERTEX_POINT('',#753);
#235=VERTEX_POINT('',#756);
#236=VERTEX_POINT('',#760);
#237=VERTEX_POINT('',#768);
#238=VERTEX_POINT('',#770);
#239=VERTEX_POINT('',#774);
#240=VERTEX_POINT('',#776);
#241=VERTEX_POINT('',#782);
#242=VERTEX_POINT('',#784);
#243=VERTEX_POINT('',#788);
#244=VERTEX_POINT('',#790);
#245=VERTEX_POINT('',#793);
#246=VERTEX_POINT('',#798);
#247=VERTEX_POINT('',#802);
#248=VERTEX_POINT('',#804);
#249=VERTEX_POINT('',#810);
#250=VERTEX_POINT('',#812);
#251=VERTEX_POINT('',#816);
#252=VERTEX_POINT('',#818);
#253=VERTEX_POINT('',#824);
#254=VERTEX_POINT('',#826);
#255=VERTEX_POINT('',#829);
#256=VERTEX_POINT('',#833);
#257=VERTEX_POINT('',#838);
#258=VERTEX_POINT('',#840);
#259=VERTEX_POINT('',#843);
#260=VERTEX_POINT('',#847);
#261=EDGE_CURVE('',#229,#229,#197,.T.);
#262=EDGE_CURVE('',#230,#230,#198,.T.);
#263=EDGE_CURVE('',#231,#231,#199,.T.);
#264=EDGE_CURVE('',#231,#229,#53,.T.);
#265=EDGE_CURVE('',#232,#232,#200,.T.);
#266=EDGE_CURVE('',#232,#230,#54,.T.);
#267=EDGE_CURVE('',#233,#233,#201,.T.);
#268=EDGE_CURVE('',#234,#234,#202,.T.);
#269=EDGE_CURVE('',#235,#235,#203,.T.);
#270=EDGE_CURVE('',#235,#233,#55,.T.);
#271=EDGE_CURVE('',#236,#236,#204,.T.);
#272=EDGE_CURVE('',#236,#234,#56,.T.);
#273=EDGE_CURVE('',#237,#237,#205,.T.);
#274=EDGE_CURVE('',#237,#238,#57,.T.);
#275=EDGE_CURVE('',#238,#238,#206,.T.);
#276=EDGE_CURVE('',#239,#239,#207,.T.);
#277=EDGE_CURVE('',#239,#240,#58,.T.);
#278=EDGE_CURVE('',#240,#240,#208,.T.);
#279=EDGE_CURVE('',#241,#241,#209,.T.);
#280=EDGE_CURVE('',#241,#242,#59,.T.);
#281=EDGE_CURVE('',#242,#242,#210,.T.);
#282=EDGE_CURVE('',#243,#243,#211,.T.);
#283=EDGE_CURVE('',#244,#244,#212,.T.);
#284=EDGE_CURVE('',#245,#245,#213,.T.);
#285=EDGE_CURVE('',#245,#243,#60,.T.);
#286=EDGE_CURVE('',#244,#246,#61,.T.);
#287=EDGE_CURVE('',#246,#246,#214,.T.);
#288=EDGE_CURVE('',#247,#247,#215,.T.);
#289=EDGE_CURVE('',#247,#248,#62,.T.);
#290=EDGE_CURVE('',#248,#248,#216,.T.);
#291=EDGE_CURVE('',#249,#249,#217,.T.);
#292=EDGE_CURVE('',#249,#250,#63,.T.);
#293=EDGE_CURVE('',#250,#250,#218,.T.);
#294=EDGE_CURVE('',#251,#251,#219,.T.);
#295=EDGE_CURVE('',#251,#252,#64,.T.);
#296=EDGE_CURVE('',#252,#252,#220,.T.);
#297=EDGE_CURVE('',#253,#253,#221,.T.);
#298=EDGE_CURVE('',#254,#254,#222,.T.);
#299=EDGE_CURVE('',#255,#255,#223,.T.);
#300=EDGE_CURVE('',#255,#253,#65,.T.);
#301=EDGE_CURVE('',#256,#256,#224,.T.);
#302=EDGE_CURVE('',#256,#254,#66,.T.);
#303=EDGE_CURVE('',#257,#257,#225,.T.);
#304=EDGE_CURVE('',#258,#258,#226,.T.);
#305=EDGE_CURVE('',#259,#259,#227,.T.);
#306=EDGE_CURVE('',#259,#257,#67,.T.);
#307=EDGE_CURVE('',#260,#260,#228,.T.);
#308=EDGE_CURVE('',#260,#258,#68,.T.);
#309=ORIENTED_EDGE('',*,*,#261,.F.);
#310=ORIENTED_EDGE('',*,*,#262,.T.);
#311=ORIENTED_EDGE('',*,*,#263,.F.);
#312=ORIENTED_EDGE('',*,*,#264,.T.);
#313=ORIENTED_EDGE('',*,*,#261,.T.);
#314=ORIENTED_EDGE('',*,*,#264,.F.);
#315=ORIENTED_EDGE('',*,*,#263,.T.);
#316=ORIENTED_EDGE('',*,*,#265,.F.);
#317=ORIENTED_EDGE('',*,*,#265,.T.);
#318=ORIENTED_EDGE('',*,*,#266,.T.);
#319=ORIENTED_EDGE('',*,*,#262,.F.);
#320=ORIENTED_EDGE('',*,*,#266,.F.);
#321=ORIENTED_EDGE('',*,*,#267,.F.);
#322=ORIENTED_EDGE('',*,*,#268,.T.);
#323=ORIENTED_EDGE('',*,*,#269,.F.);
#324=ORIENTED_EDGE('',*,*,#270,.T.);
#325=ORIENTED_EDGE('',*,*,#267,.T.);
#326=ORIENTED_EDGE('',*,*,#270,.F.);
#327=ORIENTED_EDGE('',*,*,#269,.T.);
#328=ORIENTED_EDGE('',*,*,#271,.F.);
#329=ORIENTED_EDGE('',*,*,#271,.T.);
#330=ORIENTED_EDGE('',*,*,#272,.T.);
#331=ORIENTED_EDGE('',*,*,#268,.F.);
#332=ORIENTED_EDGE('',*,*,#272,.F.);
#333=ORIENTED_EDGE('',*,*,#273,.F.);
#334=ORIENTED_EDGE('',*,*,#274,.T.);
#335=ORIENTED_EDGE('',*,*,#275,.F.);
#336=ORIENTED_EDGE('',*,*,#274,.F.);
#337=ORIENTED_EDGE('',*,*,#276,.F.);
#338=ORIENTED_EDGE('',*,*,#277,.T.);
#339=ORIENTED_EDGE('',*,*,#278,.F.);
#340=ORIENTED_EDGE('',*,*,#277,.F.);
#341=ORIENTED_EDGE('',*,*,#278,.T.);
#342=ORIENTED_EDGE('',*,*,#275,.T.);
#343=ORIENTED_EDGE('',*,*,#276,.T.);
#344=ORIENTED_EDGE('',*,*,#273,.T.);
#345=ORIENTED_EDGE('',*,*,#279,.F.);
#346=ORIENTED_EDGE('',*,*,#280,.T.);
#347=ORIENTED_EDGE('',*,*,#281,.F.);
#348=ORIENTED_EDGE('',*,*,#280,.F.);
#349=ORIENTED_EDGE('',*,*,#282,.T.);
#350=ORIENTED_EDGE('',*,*,#283,.T.);
#351=ORIENTED_EDGE('',*,*,#284,.F.);
#352=ORIENTED_EDGE('',*,*,#285,.T.);
#353=ORIENTED_EDGE('',*,*,#282,.F.);
#354=ORIENTED_EDGE('',*,*,#285,.F.);
#355=ORIENTED_EDGE('',*,*,#284,.T.);
#356=ORIENTED_EDGE('',*,*,#279,.T.);
#357=ORIENTED_EDGE('',*,*,#283,.F.);
#358=ORIENTED_EDGE('',*,*,#286,.T.);
#359=ORIENTED_EDGE('',*,*,#287,.F.);
#360=ORIENTED_EDGE('',*,*,#286,.F.);
#361=ORIENTED_EDGE('',*,*,#288,.F.);
#362=ORIENTED_EDGE('',*,*,#289,.T.);
#363=ORIENTED_EDGE('',*,*,#290,.F.);
#364=ORIENTED_EDGE('',*,*,#289,.F.);
#365=ORIENTED_EDGE('',*,*,#290,.T.);
#366=ORIENTED_EDGE('',*,*,#281,.T.);
#367=ORIENTED_EDGE('',*,*,#288,.T.);
#368=ORIENTED_EDGE('',*,*,#287,.T.);
#369=ORIENTED_EDGE('',*,*,#291,.F.);
#370=ORIENTED_EDGE('',*,*,#292,.T.);
#371=ORIENTED_EDGE('',*,*,#293,.F.);
#372=ORIENTED_EDGE('',*,*,#292,.F.);
#373=ORIENTED_EDGE('',*,*,#294,.F.);
#374=ORIENTED_EDGE('',*,*,#295,.T.);
#375=ORIENTED_EDGE('',*,*,#296,.F.);
#376=ORIENTED_EDGE('',*,*,#295,.F.);
#377=ORIENTED_EDGE('',*,*,#296,.T.);
#378=ORIENTED_EDGE('',*,*,#293,.T.);
#379=ORIENTED_EDGE('',*,*,#294,.T.);
#380=ORIENTED_EDGE('',*,*,#291,.T.);
#381=ORIENTED_EDGE('',*,*,#297,.F.);
#382=ORIENTED_EDGE('',*,*,#298,.T.);
#383=ORIENTED_EDGE('',*,*,#299,.F.);
#384=ORIENTED_EDGE('',*,*,#300,.T.);
#385=ORIENTED_EDGE('',*,*,#297,.T.);
#386=ORIENTED_EDGE('',*,*,#300,.F.);
#387=ORIENTED_EDGE('',*,*,#299,.T.);
#388=ORIENTED_EDGE('',*,*,#301,.F.);
#389=ORIENTED_EDGE('',*,*,#301,.T.);
#390=ORIENTED_EDGE('',*,*,#302,.T.);
#391=ORIENTED_EDGE('',*,*,#298,.F.);
#392=ORIENTED_EDGE('',*,*,#302,.F.);
#393=ORIENTED_EDGE('',*,*,#303,.F.);
#394=ORIENTED_EDGE('',*,*,#304,.T.);
#395=ORIENTED_EDGE('',*,*,#305,.F.);
#396=ORIENTED_EDGE('',*,*,#306,.T.);
#397=ORIENTED_EDGE('',*,*,#303,.T.);
#398=ORIENTED_EDGE('',*,*,#306,.F.);
#399=ORIENTED_EDGE('',*,*,#305,.T.);
#400=ORIENTED_EDGE('',*,*,#307,.F.);
#401=ORIENTED_EDGE('',*,*,#307,.T.);
#402=ORIENTED_EDGE('',*,*,#308,.T.);
#403=ORIENTED_EDGE('',*,*,#304,.F.);
#404=ORIENTED_EDGE('',*,*,#308,.F.);
#405=PLANE('',#497);
#406=PLANE('',#502);
#407=PLANE('',#506);
#408=PLANE('',#511);
#409=PLANE('',#523);
#410=PLANE('',#524);
#411=PLANE('',#528);
#412=PLANE('',#533);
#413=PLANE('',#539);
#414=PLANE('',#540);
#415=PLANE('',#547);
#416=PLANE('',#548);
#417=PLANE('',#549);
#418=PLANE('',#554);
#419=PLANE('',#557);
#420=PLANE('',#562);
#421=ADVANCED_FACE('',(#117,#101),#405,.T.);
#422=ADVANCED_FACE('',(#118),#85,.T.);
#423=ADVANCED_FACE('',(#119,#102),#406,.T.);
#424=ADVANCED_FACE('',(#120),#86,.F.);
#425=ADVANCED_FACE('',(#121,#103),#407,.T.);
#426=ADVANCED_FACE('',(#122),#87,.T.);
#427=ADVANCED_FACE('',(#123,#104),#408,.T.);
#428=ADVANCED_FACE('',(#124),#88,.F.);
#429=ADVANCED_FACE('',(#125),#89,.F.);
#430=ADVANCED_FACE('',(#126),#90,.T.);
#431=ADVANCED_FACE('',(#127,#105),#409,.T.);
#432=ADVANCED_FACE('',(#128,#106),#410,.F.);
#433=ADVANCED_FACE('',(#129),#91,.F.);
#434=ADVANCED_FACE('',(#130,#107),#411,.T.);
#435=ADVANCED_FACE('',(#131),#92,.T.);
#436=ADVANCED_FACE('',(#132,#108),#412,.T.);
#437=ADVANCED_FACE('',(#133),#93,.T.);
#438=ADVANCED_FACE('',(#134),#94,.T.);
#439=ADVANCED_FACE('',(#135,#109),#413,.T.);
#440=ADVANCED_FACE('',(#136,#110),#414,.T.);
#441=ADVANCED_FACE('',(#137),#95,.F.);
#442=ADVANCED_FACE('',(#138),#96,.T.);
#443=ADVANCED_FACE('',(#139,#111),#415,.T.);
#444=ADVANCED_FACE('',(#140,#112),#416,.F.);
#445=ADVANCED_FACE('',(#141,#113),#417,.T.);
#446=ADVANCED_FACE('',(#142),#97,.T.);
#447=ADVANCED_FACE('',(#143,#114),#418,.T.);
#448=ADVANCED_FACE('',(#144),#98,.F.);
#449=ADVANCED_FACE('',(#145,#115),#419,.T.);
#450=ADVANCED_FACE('',(#146),#99,.T.);
#451=ADVANCED_FACE('',(#147,#116),#420,.T.);
#452=ADVANCED_FACE('',(#148),#100,.F.);
#453=CLOSED_SHELL('',(#421,#422,#423,#424));
#454=CLOSED_SHELL('',(#425,#426,#427,#428));
#455=CLOSED_SHELL('',(#429,#430,#431,#432));
#456=CLOSED_SHELL('',(#433,#434,#435,#436,#437,#438,#439,#440));
#457=CLOSED_SHELL('',(#441,#442,#443,#444));
#458=CLOSED_SHELL('',(#445,#446,#447,#448));
#459=CLOSED_SHELL('',(#449,#450,#451,#452));
#460=DERIVED_UNIT_ELEMENT(#466,1.);
#461=DERIVED_UNIT_ELEMENT(#867,3.);
#462=DERIVED_UNIT_ELEMENT(#466,1.);
#463=DERIVED_UNIT_ELEMENT(#867,3.);
#464=DERIVED_UNIT_ELEMENT(#466,1.);
#465=DERIVED_UNIT_ELEMENT(#867,3.);
#466=(
MASS_UNIT()
NAMED_UNIT(*)
SI_UNIT(.KILO.,.GRAM.)
);
#467=DERIVED_UNIT((#460,#461));
#468=DERIVED_UNIT((#462,#463));
#469=DERIVED_UNIT((#464,#465));
#470=MEASURE_REPRESENTATION_ITEM('density measure',
POSITIVE_RATIO_MEASURE(7850.),#467);
#471=MEASURE_REPRESENTATION_ITEM('density measure',
POSITIVE_RATIO_MEASURE(7850.),#468);
#472=MEASURE_REPRESENTATION_ITEM('density measure',
POSITIVE_RATIO_MEASURE(7850.),#469);
#473=PROPERTY_DEFINITION_REPRESENTATION(#488,#479);
#474=PROPERTY_DEFINITION_REPRESENTATION(#489,#480);
#475=PROPERTY_DEFINITION_REPRESENTATION(#490,#481);
#476=PROPERTY_DEFINITION_REPRESENTATION(#491,#482);
#477=PROPERTY_DEFINITION_REPRESENTATION(#492,#483);
#478=PROPERTY_DEFINITION_REPRESENTATION(#493,#484);
#479=REPRESENTATION('material name',(#485),#862);
#480=REPRESENTATION('density',(#470),#862);
#481=REPRESENTATION('material name',(#486),#863);
#482=REPRESENTATION('density',(#471),#863);
#483=REPRESENTATION('material name',(#487),#864);
#484=REPRESENTATION('density',(#472),#864);
#485=DESCRIPTIVE_REPRESENTATION_ITEM('Steel','Steel');
#486=DESCRIPTIVE_REPRESENTATION_ITEM('Steel','Steel');
#487=DESCRIPTIVE_REPRESENTATION_ITEM('Steel','Steel');
#488=PROPERTY_DEFINITION('material property','material name',#893);
#489=PROPERTY_DEFINITION('material property','density of part',#893);
#490=PROPERTY_DEFINITION('material property','material name',#894);
#491=PROPERTY_DEFINITION('material property','density of part',#894);
#492=PROPERTY_DEFINITION('material property','material name',#895);
#493=PROPERTY_DEFINITION('material property','density of part',#895);
#494=AXIS2_PLACEMENT_3D('placement',#732,#568,#569);
#495=AXIS2_PLACEMENT_3D('placement',#733,#570,#571);
#496=AXIS2_PLACEMENT_3D('placement',#734,#572,#573);
#497=AXIS2_PLACEMENT_3D('',#735,#574,#575);
#498=AXIS2_PLACEMENT_3D('',#737,#576,#577);
#499=AXIS2_PLACEMENT_3D('',#739,#578,#579);
#500=AXIS2_PLACEMENT_3D('',#740,#580,#581);
#501=AXIS2_PLACEMENT_3D('',#742,#582,#583);
#502=AXIS2_PLACEMENT_3D('',#744,#585,#586);
#503=AXIS2_PLACEMENT_3D('',#746,#587,#588);
#504=AXIS2_PLACEMENT_3D('',#747,#589,#590);
#505=AXIS2_PLACEMENT_3D('placement',#749,#592,#593);
#506=AXIS2_PLACEMENT_3D('',#750,#594,#595);
#507=AXIS2_PLACEMENT_3D('',#752,#596,#597);
#508=AXIS2_PLACEMENT_3D('',#754,#598,#599);
#509=AXIS2_PLACEMENT_3D('',#755,#600,#601);
#510=AXIS2_PLACEMENT_3D('',#757,#602,#603);
#511=AXIS2_PLACEMENT_3D('',#759,#605,#606);
#512=AXIS2_PLACEMENT_3D('',#761,#607,#608);
#513=AXIS2_PLACEMENT_3D('',#762,#609,#610);
#514=AXIS2_PLACEMENT_3D('',#764,#612,#613);
#515=AXIS2_PLACEMENT_3D('',#765,#614,#615);
#516=AXIS2_PLACEMENT_3D('placement',#766,#616,#617);
#517=AXIS2_PLACEMENT_3D('',#767,#618,#619);
#518=AXIS2_PLACEMENT_3D('',#769,#620,#621);
#519=AXIS2_PLACEMENT_3D('',#772,#623,#624);
#520=AXIS2_PLACEMENT_3D('',#773,#625,#626);
#521=AXIS2_PLACEMENT_3D('',#775,#627,#628);
#522=AXIS2_PLACEMENT_3D('',#778,#630,#631);
#523=AXIS2_PLACEMENT_3D('',#779,#632,#633);
#524=AXIS2_PLACEMENT_3D('',#780,#634,#635);
#525=AXIS2_PLACEMENT_3D('',#781,#636,#637);
#526=AXIS2_PLACEMENT_3D('',#783,#638,#639);
#527=AXIS2_PLACEMENT_3D('',#786,#641,#642);
#528=AXIS2_PLACEMENT_3D('',#787,#643,#644);
#529=AXIS2_PLACEMENT_3D('',#789,#645,#646);
#530=AXIS2_PLACEMENT_3D('',#791,#647,#648);
#531=AXIS2_PLACEMENT_3D('',#792,#649,#650);
#532=AXIS2_PLACEMENT_3D('',#794,#651,#652);
#533=AXIS2_PLACEMENT_3D('',#796,#654,#655);
#534=AXIS2_PLACEMENT_3D('',#797,#656,#657);
#535=AXIS2_PLACEMENT_3D('',#800,#659,#660);
#536=AXIS2_PLACEMENT_3D('',#801,#661,#662);
#537=AXIS2_PLACEMENT_3D('',#803,#663,#664);
#538=AXIS2_PLACEMENT_3D('',#806,#666,#667);
#539=AXIS2_PLACEMENT_3D('',#807,#668,#669);
#540=AXIS2_PLACEMENT_3D('',#808,#670,#671);
#541=AXIS2_PLACEMENT_3D('',#809,#672,#673);
#542=AXIS2_PLACEMENT_3D('',#811,#674,#675);
#543=AXIS2_PLACEMENT_3D('',#814,#677,#678);
#544=AXIS2_PLACEMENT_3D('',#815,#679,#680);
#545=AXIS2_PLACEMENT_3D('',#817,#681,#682);
#546=AXIS2_PLACEMENT_3D('',#820,#684,#685);
#547=AXIS2_PLACEMENT_3D('',#821,#686,#687);
#548=AXIS2_PLACEMENT_3D('',#822,#688,#689);
#549=AXIS2_PLACEMENT_3D('',#823,#690,#691);
#550=AXIS2_PLACEMENT_3D('',#825,#692,#693);
#551=AXIS2_PLACEMENT_3D('',#827,#694,#695);
#552=AXIS2_PLACEMENT_3D('',#828,#696,#697);
#553=AXIS2_PLACEMENT_3D('',#830,#698,#699);
#554=AXIS2_PLACEMENT_3D('',#832,#701,#702);
#555=AXIS2_PLACEMENT_3D('',#834,#703,#704);
#556=AXIS2_PLACEMENT_3D('',#835,#705,#706);
#557=AXIS2_PLACEMENT_3D('',#837,#708,#709);
#558=AXIS2_PLACEMENT_3D('',#839,#710,#711);
#559=AXIS2_PLACEMENT_3D('',#841,#712,#713);
#560=AXIS2_PLACEMENT_3D('',#842,#714,#715);
#561=AXIS2_PLACEMENT_3D('',#844,#716,#717);
#562=AXIS2_PLACEMENT_3D('',#846,#719,#720);
#563=AXIS2_PLACEMENT_3D('',#848,#721,#722);
#564=AXIS2_PLACEMENT_3D('',#849,#723,#724);
#565=AXIS2_PLACEMENT_3D('',#851,#726,#727);
#566=AXIS2_PLACEMENT_3D('',#852,#728,#729);
#567=AXIS2_PLACEMENT_3D('',#853,#730,#731);
#568=DIRECTION('axis',(0.,0.,1.));
#569=DIRECTION('refdir',(1.,0.,0.));
#570=DIRECTION('axis',(0.,0.,1.));
#571=DIRECTION('refdir',(1.,0.,0.));
#572=DIRECTION('axis',(0.,0.,1.));
#573=DIRECTION('refdir',(1.,0.,0.));
#574=DIRECTION('center_axis',(0.,0.,1.));
#575=DIRECTION('ref_axis',(1.,0.,0.));
#576=DIRECTION('center_axis',(0.,0.,-1.));
#577=DIRECTION('ref_axis',(1.,0.,0.));
#578=DIRECTION('center_axis',(0.,0.,-1.));
#579=DIRECTION('ref_axis',(1.,0.,0.));
#580=DIRECTION('center_axis',(0.,0.,-1.));
#581=DIRECTION('ref_axis',(0.,1.,0.));
#582=DIRECTION('center_axis',(0.,0.,-1.));
#583=DIRECTION('ref_axis',(1.,0.,0.));
#584=DIRECTION('',(0.,0.,1.));
#585=DIRECTION('center_axis',(0.,0.,-1.));
#586=DIRECTION('ref_axis',(-1.,0.,0.));
#587=DIRECTION('center_axis',(0.,0.,-1.));
#588=DIRECTION('ref_axis',(1.,0.,0.));
#589=DIRECTION('center_axis',(0.,0.,-1.));
#590=DIRECTION('ref_axis',(0.,1.,0.));
#591=DIRECTION('',(0.,0.,1.));
#592=DIRECTION('axis',(0.,0.,1.));
#593=DIRECTION('refdir',(1.,0.,0.));
#594=DIRECTION('center_axis',(0.,0.,1.));
#595=DIRECTION('ref_axis',(1.,0.,0.));
#596=DIRECTION('center_axis',(0.,0.,-1.));
#597=DIRECTION('ref_axis',(1.,0.,0.));
#598=DIRECTION('center_axis',(0.,0.,-1.));
#599=DIRECTION('ref_axis',(1.,0.,0.));
#600=DIRECTION('center_axis',(0.,0.,-1.));
#601=DIRECTION('ref_axis',(0.,1.,0.));
#602=DIRECTION('center_axis',(0.,0.,-1.));
#603=DIRECTION('ref_axis',(1.,0.,0.));
#604=DIRECTION('',(0.,0.,1.));
#605=DIRECTION('center_axis',(0.,0.,-1.));
#606=DIRECTION('ref_axis',(-1.,0.,0.));
#607=DIRECTION('center_axis',(0.,0.,-1.));
#608=DIRECTION('ref_axis',(1.,0.,0.));
#609=DIRECTION('center_axis',(0.,0.,-1.));
#610=DIRECTION('ref_axis',(0.,1.,0.));
#611=DIRECTION('',(0.,0.,1.));
#612=DIRECTION('',(0.,0.,1.));
#613=DIRECTION('',(1.,0.,0.));
#614=DIRECTION('',(0.,0.,1.));
#615=DIRECTION('',(1.,0.,0.));
#616=DIRECTION('axis',(0.,0.,1.));
#617=DIRECTION('refdir',(1.,0.,0.));
#618=DIRECTION('center_axis',(0.,0.,-1.));
#619=DIRECTION('ref_axis',(-1.,0.,0.));
#620=DIRECTION('center_axis',(0.,0.,1.));
#621=DIRECTION('ref_axis',(-1.,0.,0.));
#622=DIRECTION('',(0.,0.,1.));
#623=DIRECTION('center_axis',(0.,0.,-1.));
#624=DIRECTION('ref_axis',(-1.,0.,0.));
#625=DIRECTION('center_axis',(0.,0.,-1.));
#626=DIRECTION('ref_axis',(-1.,0.,0.));
#627=DIRECTION('center_axis',(0.,0.,-1.));
#628=DIRECTION('ref_axis',(-1.,0.,0.));
#629=DIRECTION('',(0.,0.,1.));
#630=DIRECTION('center_axis',(0.,0.,1.));
#631=DIRECTION('ref_axis',(-1.,0.,0.));
#632=DIRECTION('center_axis',(0.,0.,1.));
#633=DIRECTION('ref_axis',(-1.,0.,0.));
#634=DIRECTION('center_axis',(0.,0.,1.));
#635=DIRECTION('ref_axis',(-1.,0.,0.));
#636=DIRECTION('center_axis',(0.,0.,-1.));
#637=DIRECTION('ref_axis',(1.,0.,0.));
#638=DIRECTION('center_axis',(0.,0.,-1.));
#639=DIRECTION('ref_axis',(1.,0.,0.));
#640=DIRECTION('',(0.,0.,-1.));
#641=DIRECTION('center_axis',(0.,0.,1.));
#642=DIRECTION('ref_axis',(1.,0.,0.));
#643=DIRECTION('center_axis',(0.,0.,-1.));
#644=DIRECTION('ref_axis',(-1.,0.,0.));
#645=DIRECTION('center_axis',(0.,0.,-1.));
#646=DIRECTION('ref_axis',(1.,0.,0.));
#647=DIRECTION('center_axis',(0.,0.,1.));
#648=DIRECTION('ref_axis',(1.,0.,0.));
#649=DIRECTION('center_axis',(0.,0.,1.));
#650=DIRECTION('ref_axis',(1.,0.,0.));
#651=DIRECTION('center_axis',(0.,0.,1.));
#652=DIRECTION('ref_axis',(1.,0.,0.));
#653=DIRECTION('',(0.,0.,-1.));
#654=DIRECTION('center_axis',(0.,0.,1.));
#655=DIRECTION('ref_axis',(1.,0.,0.));
#656=DIRECTION('center_axis',(0.,0.,1.));
#657=DIRECTION('ref_axis',(1.,0.,0.));
#658=DIRECTION('',(0.,0.,-1.));
#659=DIRECTION('center_axis',(0.,0.,-1.));
#660=DIRECTION('ref_axis',(1.,0.,0.));
#661=DIRECTION('center_axis',(0.,0.,1.));
#662=DIRECTION('ref_axis',(1.,0.,0.));
#663=DIRECTION('center_axis',(0.,0.,1.));
#664=DIRECTION('ref_axis',(1.,0.,0.));
#665=DIRECTION('',(0.,0.,-1.));
#666=DIRECTION('center_axis',(0.,0.,-1.));
#667=DIRECTION('ref_axis',(1.,0.,0.));
#668=DIRECTION('center_axis',(0.,0.,-1.));
#669=DIRECTION('ref_axis',(-1.,0.,0.));
#670=DIRECTION('center_axis',(0.,0.,1.));
#671=DIRECTION('ref_axis',(1.,0.,0.));
#672=DIRECTION('center_axis',(0.,0.,-1.));
#673=DIRECTION('ref_axis',(-1.,0.,0.));
#674=DIRECTION('center_axis',(0.,0.,1.));
#675=DIRECTION('ref_axis',(-1.,0.,0.));
#676=DIRECTION('',(0.,0.,1.));
#677=DIRECTION('center_axis',(0.,0.,-1.));
#678=DIRECTION('ref_axis',(-1.,0.,0.));
#679=DIRECTION('center_axis',(0.,0.,-1.));
#680=DIRECTION('ref_axis',(-1.,0.,0.));
#681=DIRECTION('center_axis',(0.,0.,-1.));
#682=DIRECTION('ref_axis',(-1.,0.,0.));
#683=DIRECTION('',(0.,0.,1.));
#684=DIRECTION('center_axis',(0.,0.,1.));
#685=DIRECTION('ref_axis',(-1.,0.,0.));
#686=DIRECTION('center_axis',(0.,0.,1.));
#687=DIRECTION('ref_axis',(-1.,0.,0.));
#688=DIRECTION('center_axis',(0.,0.,1.));
#689=DIRECTION('ref_axis',(-1.,0.,0.));
#690=DIRECTION('center_axis',(0.,0.,1.));
#691=DIRECTION('ref_axis',(1.,0.,0.));
#692=DIRECTION('center_axis',(0.,0.,-1.));
#693=DIRECTION('ref_axis',(1.,0.,0.));
#694=DIRECTION('center_axis',(0.,0.,-1.));
#695=DIRECTION('ref_axis',(1.,0.,0.));
#696=DIRECTION('center_axis',(0.,0.,-1.));
#697=DIRECTION('ref_axis',(0.,1.,0.));
#698=DIRECTION('center_axis',(0.,0.,-1.));
#699=DIRECTION('ref_axis',(1.,0.,0.));
#700=DIRECTION('',(0.,0.,1.));
#701=DIRECTION('center_axis',(0.,0.,-1.));
#702=DIRECTION('ref_axis',(-1.,0.,0.));
#703=DIRECTION('center_axis',(0.,0.,-1.));
#704=DIRECTION('ref_axis',(1.,0.,0.));
#705=DIRECTION('center_axis',(0.,0.,-1.));
#706=DIRECTION('ref_axis',(0.,1.,0.));
#707=DIRECTION('',(0.,0.,1.));
#708=DIRECTION('center_axis',(0.,0.,1.));
#709=DIRECTION('ref_axis',(1.,0.,0.));
#710=DIRECTION('center_axis',(0.,0.,-1.));
#711=DIRECTION('ref_axis',(1.,0.,0.));
#712=DIRECTION('center_axis',(0.,0.,-1.));
#713=DIRECTION('ref_axis',(1.,0.,0.));
#714=DIRECTION('center_axis',(0.,0.,-1.));
#715=DIRECTION('ref_axis',(0.,1.,0.));
#716=DIRECTION('center_axis',(0.,0.,-1.));
#717=DIRECTION('ref_axis',(1.,0.,0.));
#718=DIRECTION('',(0.,0.,1.));
#719=DIRECTION('center_axis',(0.,0.,-1.));
#720=DIRECTION('ref_axis',(-1.,0.,0.));
#721=DIRECTION('center_axis',(0.,0.,-1.));
#722=DIRECTION('ref_axis',(1.,0.,0.));
#723=DIRECTION('center_axis',(0.,0.,-1.));
#724=DIRECTION('ref_axis',(0.,1.,0.));
#725=DIRECTION('',(0.,0.,1.));
#726=DIRECTION('',(0.,0.,1.));
#727=DIRECTION('',(1.,0.,0.));
#728=DIRECTION('',(0.,0.,1.));
#729=DIRECTION('',(1.,0.,0.));
#730=DIRECTION('',(0.,0.,1.));
#731=DIRECTION('',(1.,0.,0.));
#732=CARTESIAN_POINT('',(0.,0.,0.));
#733=CARTESIAN_POINT('',(0.,0.,0.));
#734=CARTESIAN_POINT('',(0.,0.,0.));
#735=CARTESIAN_POINT('Origin',(0.,5.,4.));
#736=CARTESIAN_POINT('',(-6.12323399573677E-16,-5.,4.));
#737=CARTESIAN_POINT('Origin',(0.,0.,4.));
#738=CARTESIAN_POINT('',(-5.51091059616309E-16,-4.5,4.));
#739=CARTESIAN_POINT('Origin',(0.,0.,4.));
#740=CARTESIAN_POINT('Origin',(0.,0.,2.));
#741=CARTESIAN_POINT('',(-6.12323399573677E-16,-5.,0.));
#742=CARTESIAN_POINT('Origin',(0.,0.,0.));
#743=CARTESIAN_POINT('',(-6.12323399573677E-16,-5.,2.));
#744=CARTESIAN_POINT('Origin',(0.,4.5,0.));
#745=CARTESIAN_POINT('',(-5.51091059616309E-16,-4.5,0.));
#746=CARTESIAN_POINT('Origin',(0.,0.,0.));
#747=CARTESIAN_POINT('Origin',(0.,0.,2.));
#748=CARTESIAN_POINT('',(-5.51091059616309E-16,-4.5,2.));
#749=CARTESIAN_POINT('',(0.,0.,0.));
#750=CARTESIAN_POINT('Origin',(0.,3.,4.));
#751=CARTESIAN_POINT('',(-3.67394039744206E-16,-3.,4.));
#752=CARTESIAN_POINT('Origin',(0.,0.,4.));
#753=CARTESIAN_POINT('',(-3.06161699786838E-16,-2.5,4.));
#754=CARTESIAN_POINT('Origin',(0.,0.,4.));
#755=CARTESIAN_POINT('Origin',(0.,0.,2.));
#756=CARTESIAN_POINT('',(-3.67394039744206E-16,-3.,0.));
#757=CARTESIAN_POINT('Origin',(0.,0.,0.));
#758=CARTESIAN_POINT('',(-3.67394039744206E-16,-3.,2.));
#759=CARTESIAN_POINT('Origin',(0.,2.5,0.));
#760=CARTESIAN_POINT('',(-3.06161699786838E-16,-2.5,0.));
#761=CARTESIAN_POINT('Origin',(0.,0.,0.));
#762=CARTESIAN_POINT('Origin',(0.,0.,2.));
#763=CARTESIAN_POINT('',(-3.06161699786838E-16,-2.5,2.));
#764=CARTESIAN_POINT('',(0.,0.,0.));
#765=CARTESIAN_POINT('',(0.,0.,0.));
#766=CARTESIAN_POINT('',(0.,0.,0.));
#767=CARTESIAN_POINT('Origin',(0.,0.,4.));
#768=CARTESIAN_POINT('',(3.,3.67394039744206E-16,3.8));
#769=CARTESIAN_POINT('Origin',(0.,0.,3.8));
#770=CARTESIAN_POINT('',(3.,3.67394039744206E-16,4.));
#771=CARTESIAN_POINT('',(3.,-3.67394039744206E-16,4.));
#772=CARTESIAN_POINT('Origin',(0.,0.,4.));
#773=CARTESIAN_POINT('Origin',(0.,0.,4.));
#774=CARTESIAN_POINT('',(4.5,5.51091059616309E-16,3.8));
#775=CARTESIAN_POINT('Origin',(0.,0.,3.8));
#776=CARTESIAN_POINT('',(4.5,5.51091059616309E-16,4.));
#777=CARTESIAN_POINT('',(4.5,-5.51091059616309E-16,4.));
#778=CARTESIAN_POINT('Origin',(0.,0.,4.));
#779=CARTESIAN_POINT('Origin',(0.,0.,4.));
#780=CARTESIAN_POINT('Origin',(0.,0.,3.8));
#781=CARTESIAN_POINT('Origin',(-3.50835464926744E-16,0.,4.25));
#782=CARTESIAN_POINT('',(-5.,6.12323399573677E-16,8.5));
#783=CARTESIAN_POINT('Origin',(-3.50835464926744E-16,0.,8.5));
#784=CARTESIAN_POINT('',(-5.,6.12323399573677E-16,0.));
#785=CARTESIAN_POINT('',(-5.,6.12323399573677E-16,4.25));
#786=CARTESIAN_POINT('Origin',(-3.50835464926744E-16,0.,0.));
#787=CARTESIAN_POINT('Origin',(0.,0.,7.5));
#788=CARTESIAN_POINT('',(-9.,-1.10218211923262E-15,7.5));
#789=CARTESIAN_POINT('Origin',(0.,0.,7.5));
#790=CARTESIAN_POINT('',(-6.1,-7.47034547479885E-16,7.5));
#791=CARTESIAN_POINT('Origin',(0.,0.,7.5));
#792=CARTESIAN_POINT('Origin',(0.,0.,8.));
#793=CARTESIAN_POINT('',(-9.,-1.10218211923262E-15,8.5));
#794=CARTESIAN_POINT('Origin',(0.,0.,8.5));
#795=CARTESIAN_POINT('',(-9.,-1.10218211923262E-15,8.));
#796=CARTESIAN_POINT('Origin',(0.,0.,8.5));
#797=CARTESIAN_POINT('Origin',(0.,0.,4.25));
#798=CARTESIAN_POINT('',(-6.1,-7.47034547479885E-16,1.));
#799=CARTESIAN_POINT('',(-6.1,-7.47034547479885E-16,4.25));
#800=CARTESIAN_POINT('Origin',(0.,0.,1.));
#801=CARTESIAN_POINT('Origin',(0.,0.,0.5));
#802=CARTESIAN_POINT('',(-9.,-1.10218211923262E-15,1.));
#803=CARTESIAN_POINT('Origin',(0.,0.,1.));
#804=CARTESIAN_POINT('',(-9.,-1.10218211923262E-15,0.));
#805=CARTESIAN_POINT('',(-9.,-1.10218211923262E-15,0.5));
#806=CARTESIAN_POINT('Origin',(0.,0.,0.));
#807=CARTESIAN_POINT('Origin',(0.,0.,0.));
#808=CARTESIAN_POINT('Origin',(0.,0.,1.));
#809=CARTESIAN_POINT('Origin',(0.,0.,8.4));
#810=CARTESIAN_POINT('',(3.,3.67394039744206E-16,8.2));
#811=CARTESIAN_POINT('Origin',(0.,0.,8.2));
#812=CARTESIAN_POINT('',(3.,3.67394039744206E-16,8.4));
#813=CARTESIAN_POINT('',(3.,-3.67394039744206E-16,8.4));
#814=CARTESIAN_POINT('Origin',(0.,0.,8.4));
#815=CARTESIAN_POINT('Origin',(0.,0.,8.4));
#816=CARTESIAN_POINT('',(4.5,5.51091059616309E-16,8.2));
#817=CARTESIAN_POINT('Origin',(0.,0.,8.2));
#818=CARTESIAN_POINT('',(4.5,5.51091059616309E-16,8.4));
#819=CARTESIAN_POINT('',(4.5,-5.51091059616309E-16,8.4));
#820=CARTESIAN_POINT('Origin',(0.,0.,8.4));
#821=CARTESIAN_POINT('Origin',(0.,0.,8.4));
#822=CARTESIAN_POINT('Origin',(0.,0.,8.2));
#823=CARTESIAN_POINT('Origin',(0.,5.,8.5));
#824=CARTESIAN_POINT('',(-6.12323399573677E-16,-5.,8.5));
#825=CARTESIAN_POINT('Origin',(0.,0.,8.5));
#826=CARTESIAN_POINT('',(-5.51091059616309E-16,-4.5,8.5));
#827=CARTESIAN_POINT('Origin',(0.,0.,8.5));
#828=CARTESIAN_POINT('Origin',(0.,0.,6.5));
#829=CARTESIAN_POINT('',(-6.12323399573677E-16,-5.,4.5));
#830=CARTESIAN_POINT('Origin',(0.,0.,4.5));
#831=CARTESIAN_POINT('',(-6.12323399573677E-16,-5.,6.5));
#832=CARTESIAN_POINT('Origin',(0.,4.5,4.5));
#833=CARTESIAN_POINT('',(-5.51091059616309E-16,-4.5,4.5));
#834=CARTESIAN_POINT('Origin',(0.,0.,4.5));
#835=CARTESIAN_POINT('Origin',(0.,0.,6.5));
#836=CARTESIAN_POINT('',(-5.51091059616309E-16,-4.5,6.5));
#837=CARTESIAN_POINT('Origin',(0.,3.,8.5));
#838=CARTESIAN_POINT('',(-3.67394039744206E-16,-3.,8.5));
#839=CARTESIAN_POINT('Origin',(0.,0.,8.5));
#840=CARTESIAN_POINT('',(-3.06161699786838E-16,-2.5,8.5));
#841=CARTESIAN_POINT('Origin',(0.,0.,8.5));
#842=CARTESIAN_POINT('Origin',(0.,0.,6.5));
#843=CARTESIAN_POINT('',(-3.67394039744206E-16,-3.,4.5));
#844=CARTESIAN_POINT('Origin',(0.,0.,4.5));
#845=CARTESIAN_POINT('',(-3.67394039744206E-16,-3.,6.5));
#846=CARTESIAN_POINT('Origin',(0.,2.5,4.5));
#847=CARTESIAN_POINT('',(-3.06161699786838E-16,-2.5,4.5));
#848=CARTESIAN_POINT('Origin',(0.,0.,4.5));
#849=CARTESIAN_POINT('Origin',(0.,0.,6.5));
#850=CARTESIAN_POINT('',(-3.06161699786838E-16,-2.5,6.5));
#851=CARTESIAN_POINT('',(0.,0.,0.));
#852=CARTESIAN_POINT('',(0.,0.,-0.1));
#853=CARTESIAN_POINT('',(0.,0.,-3.7));
#854=UNCERTAINTY_MEASURE_WITH_UNIT(LENGTH_MEASURE(0.01),#866,
'DISTANCE_ACCURACY_VALUE',
'Maximum model space distance between geometric entities at asserted c
onnectivities');
#855=UNCERTAINTY_MEASURE_WITH_UNIT(LENGTH_MEASURE(0.01),#866,
'DISTANCE_ACCURACY_VALUE',
'Maximum model space distance between geometric entities at asserted c
onnectivities');
#856=UNCERTAINTY_MEASURE_WITH_UNIT(LENGTH_MEASURE(0.01),#866,
'DISTANCE_ACCURACY_VALUE',
'Maximum model space distance between geometric entities at asserted c
onnectivities');
#857=UNCERTAINTY_MEASURE_WITH_UNIT(LENGTH_MEASURE(0.01),#866,
'DISTANCE_ACCURACY_VALUE',
'Maximum model space distance between geometric entities at asserted c
onnectivities');
#858=UNCERTAINTY_MEASURE_WITH_UNIT(LENGTH_MEASURE(0.01),#866,
'DISTANCE_ACCURACY_VALUE',
'Maximum model space distance between geometric entities at asserted c
onnectivities');
#859=UNCERTAINTY_MEASURE_WITH_UNIT(LENGTH_MEASURE(0.01),#866,
'DISTANCE_ACCURACY_VALUE',
'Maximum model space distance between geometric entities at asserted c
onnectivities');
#860=(
GEOMETRIC_REPRESENTATION_CONTEXT(3)
GLOBAL_UNCERTAINTY_ASSIGNED_CONTEXT((#854))
GLOBAL_UNIT_ASSIGNED_CONTEXT((#866,#868,#869))
REPRESENTATION_CONTEXT('','3D')
);
#861=(
GEOMETRIC_REPRESENTATION_CONTEXT(3)
GLOBAL_UNCERTAINTY_ASSIGNED_CONTEXT((#855))
GLOBAL_UNIT_ASSIGNED_CONTEXT((#866,#868,#869))
REPRESENTATION_CONTEXT('','3D')
);
#862=(
GEOMETRIC_REPRESENTATION_CONTEXT(3)
GLOBAL_UNCERTAINTY_ASSIGNED_CONTEXT((#856))
GLOBAL_UNIT_ASSIGNED_CONTEXT((#866,#868,#869))
REPRESENTATION_CONTEXT('','3D')
);
#863=(
GEOMETRIC_REPRESENTATION_CONTEXT(3)
GLOBAL_UNCERTAINTY_ASSIGNED_CONTEXT((#857))
GLOBAL_UNIT_ASSIGNED_CONTEXT((#866,#868,#869))
REPRESENTATION_CONTEXT('','3D')
);
#864=(
GEOMETRIC_REPRESENTATION_CONTEXT(3)
GLOBAL_UNCERTAINTY_ASSIGNED_CONTEXT((#858))
GLOBAL_UNIT_ASSIGNED_CONTEXT((#866,#868,#869))
REPRESENTATION_CONTEXT('','3D')
);
#865=(
GEOMETRIC_REPRESENTATION_CONTEXT(3)
GLOBAL_UNCERTAINTY_ASSIGNED_CONTEXT((#859))
GLOBAL_UNIT_ASSIGNED_CONTEXT((#866,#868,#869))
REPRESENTATION_CONTEXT('','3D')
);
#866=(
LENGTH_UNIT()
NAMED_UNIT(*)
SI_UNIT(.MILLI.,.METRE.)
);
#867=(
LENGTH_UNIT()
NAMED_UNIT(*)
SI_UNIT($,.METRE.)
);
#868=(
NAMED_UNIT(*)
PLANE_ANGLE_UNIT()
SI_UNIT($,.RADIAN.)
);
#869=(
NAMED_UNIT(*)
SI_UNIT($,.STERADIAN.)
SOLID_ANGLE_UNIT()
);
#870=SHAPE_DEFINITION_REPRESENTATION(#875,#885);
#871=SHAPE_DEFINITION_REPRESENTATION(#876,#886);
#872=SHAPE_DEFINITION_REPRESENTATION(#877,#887);
#873=SHAPE_DEFINITION_REPRESENTATION(#878,#888);
#874=SHAPE_DEFINITION_REPRESENTATION(#881,#889);
#875=PRODUCT_DEFINITION_SHAPE('',$,#891);
#876=PRODUCT_DEFINITION_SHAPE('',$,#892);
#877=PRODUCT_DEFINITION_SHAPE('',$,#893);
#878=PRODUCT_DEFINITION_SHAPE('',$,#894);
#879=PRODUCT_DEFINITION_SHAPE($,$,#26);
#880=PRODUCT_DEFINITION_SHAPE($,$,#27);
#881=PRODUCT_DEFINITION_SHAPE('',$,#895);
#882=PRODUCT_DEFINITION_SHAPE($,$,#28);
#883=PRODUCT_DEFINITION_SHAPE($,$,#29);
#884=PRODUCT_DEFINITION_SHAPE($,$,#30);
#885=SHAPE_REPRESENTATION('',(#494,#565,#566,#567),#860);
#886=SHAPE_REPRESENTATION('',(#495,#514,#515),#861);
#887=SHAPE_REPRESENTATION('',(#496),#862);
#888=SHAPE_REPRESENTATION('',(#505),#863);
#889=SHAPE_REPRESENTATION('',(#516),#864);
#890=PRODUCT_DEFINITION_CONTEXT('part definition',#907,'design');
#891=PRODUCT_DEFINITION(
'005035 polea GT2-20 (con rodamientos, sin dientes)(D.I:5mm)',
'005035 polea GT2-20 (con rodamientos, sin dientes)(D.I:5mm) v4',#896,#890);
#892=PRODUCT_DEFINITION('Component1','Component1',#897,#890);
#893=PRODUCT_DEFINITION('Component3','Component3',#898,#890);
#894=PRODUCT_DEFINITION('Component4','Component4',#899,#890);
#895=PRODUCT_DEFINITION('Component2','Component2',#900,#890);
#896=PRODUCT_DEFINITION_FORMATION('',$,#909);
#897=PRODUCT_DEFINITION_FORMATION('',$,#910);
#898=PRODUCT_DEFINITION_FORMATION('',$,#911);
#899=PRODUCT_DEFINITION_FORMATION('',$,#912);
#900=PRODUCT_DEFINITION_FORMATION('',$,#913);
#901=PRODUCT_RELATED_PRODUCT_CATEGORY(
'005035 polea GT2-20 (con rodamientos, sin dientes)(D.I:5mm) v4',
'005035 polea GT2-20 (con rodamientos, sin dientes)(D.I:5mm) v4',(#909));
#902=PRODUCT_RELATED_PRODUCT_CATEGORY('Component1','Component1',(#910));
#903=PRODUCT_RELATED_PRODUCT_CATEGORY('Component3','Component3',(#911));
#904=PRODUCT_RELATED_PRODUCT_CATEGORY('Component4','Component4',(#912));
#905=PRODUCT_RELATED_PRODUCT_CATEGORY('Component2','Component2',(#913));
#906=APPLICATION_PROTOCOL_DEFINITION('international standard',
'automotive_design',2009,#907);
#907=APPLICATION_CONTEXT(
'Core Data for Automotive Mechanical Design Process');
#908=PRODUCT_CONTEXT('part definition',#907,'mechanical');
#909=PRODUCT(
'005035 polea GT2-20 (con rodamientos, sin dientes)(D.I:5mm)',
'005035 polea GT2-20 (con rodamientos, sin dientes)(D.I:5mm) v4',$,(#908));
#910=PRODUCT('Component1','Component1',$,(#908));
#911=PRODUCT('Component3','Component3',$,(#908));
#912=PRODUCT('Component4','Component4',$,(#908));
#913=PRODUCT('Component2','Component2',$,(#908));
#914=PRESENTATION_STYLE_ASSIGNMENT((#918));
#915=PRESENTATION_STYLE_ASSIGNMENT((#919));
#916=PRESENTATION_STYLE_ASSIGNMENT((#920));
#917=PRESENTATION_STYLE_ASSIGNMENT((#921));
#918=SURFACE_STYLE_USAGE(.BOTH.,#922);
#919=SURFACE_STYLE_USAGE(.BOTH.,#923);
#920=SURFACE_STYLE_USAGE(.BOTH.,#924);
#921=SURFACE_STYLE_USAGE(.BOTH.,#925);
#922=SURFACE_SIDE_STYLE('',(#926));
#923=SURFACE_SIDE_STYLE('',(#927));
#924=SURFACE_SIDE_STYLE('',(#928));
#925=SURFACE_SIDE_STYLE('',(#929));
#926=SURFACE_STYLE_FILL_AREA(#930);
#927=SURFACE_STYLE_FILL_AREA(#931);
#928=SURFACE_STYLE_FILL_AREA(#932);
#929=SURFACE_STYLE_FILL_AREA(#933);
#930=FILL_AREA_STYLE('Steel - Satin',(#934));
#931=FILL_AREA_STYLE('Aluminum - Bead Blasted',(#935));
#932=FILL_AREA_STYLE('Rubber - Soft',(#936));
#933=FILL_AREA_STYLE('Stainless Steel - Polished',(#937));
#934=FILL_AREA_STYLE_COLOUR('Steel - Satin',#938);
#935=FILL_AREA_STYLE_COLOUR('Aluminum - Bead Blasted',#939);
#936=FILL_AREA_STYLE_COLOUR('Rubber - Soft',#940);
#937=FILL_AREA_STYLE_COLOUR('Stainless Steel - Polished',#941);
#938=COLOUR_RGB('Steel - Satin',0.627450980392157,0.627450980392157,0.627450980392157);
#939=COLOUR_RGB('Aluminum - Bead Blasted',0.619607843137255,0.619607843137255,
0.619607843137255);
#940=COLOUR_RGB('Rubber - Soft',0.152941176470588,0.152941176470588,0.152941176470588);
#941=COLOUR_RGB('Stainless Steel - Polished',0.796078431372549,0.796078431372549,
0.796078431372549);
ENDSEC;
END-ISO-10303-21;
