ISO-10303-21;
HEADER;
/* Generated by software containing ST-Developer
 * from STEP Tools, Inc. (www.steptools.com) 
 */

FILE_DESCRIPTION(
/* description */ (''),
/* implementation_level */ '2;1');

FILE_NAME(
/* name */ 
'C:/Users/pract/OneDrive/11 - MODELOS 3D y DIMENSIONES/Modelos 3D Cime
ch/Poleas dentadas y lisas/005028 Polea GT2-16 (con rodamientos, sin d
ientes)(D.I. 3mm).step',
/* time_stamp */ '2020-06-09T18:15:39-04:00',
/* author */ (''),
/* organization */ (''),
/* preprocessor_version */ 'ST-DEVELOPER v18.1',
/* originating_system */ 'Autodesk Translation Framework v9.3.0.1241',
/* authorisation */ '');

FILE_SCHEMA (('AUTOMOTIVE_DESIGN { 1 0 10303 214 3 1 1 }'));
ENDSEC;

DATA;
#10=MECHANICAL_DESIGN_GEOMETRIC_PRESENTATION_REPRESENTATION('',(#27,#28,
#29,#30,#31),#790);
#11=ITEM_DEFINED_TRANSFORMATION($,$,#452,#516);
#12=ITEM_DEFINED_TRANSFORMATION($,$,#461,#517);
#13=(
REPRESENTATION_RELATIONSHIP($,$,#804,#803)
REPRESENTATION_RELATIONSHIP_WITH_TRANSFORMATION(#11)
SHAPE_REPRESENTATION_RELATIONSHIP()
);
#14=(
REPRESENTATION_RELATIONSHIP($,$,#805,#803)
REPRESENTATION_RELATIONSHIP_WITH_TRANSFORMATION(#12)
SHAPE_REPRESENTATION_RELATIONSHIP()
);
#15=CONTEXT_DEPENDENT_SHAPE_REPRESENTATION(#13,#801);
#16=CONTEXT_DEPENDENT_SHAPE_REPRESENTATION(#14,#802);
#17=NEXT_ASSEMBLY_USAGE_OCCURRENCE('Component1:1','Component1:1',
'Component1:1',#807,#808,'Component1:1');
#18=NEXT_ASSEMBLY_USAGE_OCCURRENCE('Component2:1','Component2:1',
'Component2:1',#807,#809,'Component2:1');
#19=CONICAL_SURFACE('',#470,5.4,1.52537304737332);
#20=CONICAL_SURFACE('',#478,5.4,1.52537304737332);
#21=SHAPE_REPRESENTATION_RELATIONSHIP('SRR','None',#804,#24);
#22=SHAPE_REPRESENTATION_RELATIONSHIP('SRR','None',#805,#25);
#23=SHAPE_REPRESENTATION_RELATIONSHIP('SRR','None',#803,#26);
#24=ADVANCED_BREP_SHAPE_REPRESENTATION('',(#32),#788);
#25=ADVANCED_BREP_SHAPE_REPRESENTATION('',(#33),#789);
#26=ADVANCED_BREP_SHAPE_REPRESENTATION('',(#34,#35,#36),#787);
#27=STYLED_ITEM('',(#822),#32);
#28=STYLED_ITEM('',(#822),#33);
#29=STYLED_ITEM('',(#823),#34);
#30=STYLED_ITEM('',(#822),#35);
#31=STYLED_ITEM('',(#822),#36);
#32=MANIFOLD_SOLID_BREP('Body1',#423);
#33=MANIFOLD_SOLID_BREP('Body1',#424);
#34=MANIFOLD_SOLID_BREP('Body1',#425);
#35=MANIFOLD_SOLID_BREP('Body3',#426);
#36=MANIFOLD_SOLID_BREP('Body4',#427);
#37=FACE_BOUND('',#98,.T.);
#38=FACE_BOUND('',#100,.T.);
#39=FACE_BOUND('',#104,.T.);
#40=FACE_BOUND('',#106,.T.);
#41=FACE_BOUND('',#109,.T.);
#42=FACE_BOUND('',#114,.T.);
#43=FACE_BOUND('',#118,.T.);
#44=FACE_BOUND('',#121,.T.);
#45=FACE_BOUND('',#123,.T.);
#46=FACE_BOUND('',#126,.T.);
#47=FACE_BOUND('',#130,.T.);
#48=FACE_BOUND('',#132,.T.);
#49=FACE_BOUND('',#136,.T.);
#50=FACE_BOUND('',#138,.T.);
#51=PLANE('',#459);
#52=PLANE('',#460);
#53=PLANE('',#468);
#54=PLANE('',#469);
#55=PLANE('',#474);
#56=PLANE('',#484);
#57=PLANE('',#492);
#58=PLANE('',#496);
#59=PLANE('',#497);
#60=PLANE('',#499);
#61=PLANE('',#506);
#62=PLANE('',#507);
#63=PLANE('',#514);
#64=PLANE('',#515);
#65=FACE_OUTER_BOUND('',#95,.T.);
#66=FACE_OUTER_BOUND('',#96,.T.);
#67=FACE_OUTER_BOUND('',#97,.T.);
#68=FACE_OUTER_BOUND('',#99,.T.);
#69=FACE_OUTER_BOUND('',#101,.T.);
#70=FACE_OUTER_BOUND('',#102,.T.);
#71=FACE_OUTER_BOUND('',#103,.T.);
#72=FACE_OUTER_BOUND('',#105,.T.);
#73=FACE_OUTER_BOUND('',#107,.T.);
#74=FACE_OUTER_BOUND('',#108,.T.);
#75=FACE_OUTER_BOUND('',#110,.T.);
#76=FACE_OUTER_BOUND('',#111,.T.);
#77=FACE_OUTER_BOUND('',#112,.T.);
#78=FACE_OUTER_BOUND('',#113,.T.);
#79=FACE_OUTER_BOUND('',#115,.T.);
#80=FACE_OUTER_BOUND('',#116,.T.);
#81=FACE_OUTER_BOUND('',#117,.T.);
#82=FACE_OUTER_BOUND('',#119,.T.);
#83=FACE_OUTER_BOUND('',#120,.T.);
#84=FACE_OUTER_BOUND('',#122,.T.);
#85=FACE_OUTER_BOUND('',#124,.T.);
#86=FACE_OUTER_BOUND('',#125,.T.);
#87=FACE_OUTER_BOUND('',#127,.T.);
#88=FACE_OUTER_BOUND('',#128,.T.);
#89=FACE_OUTER_BOUND('',#129,.T.);
#90=FACE_OUTER_BOUND('',#131,.T.);
#91=FACE_OUTER_BOUND('',#133,.T.);
#92=FACE_OUTER_BOUND('',#134,.T.);
#93=FACE_OUTER_BOUND('',#135,.T.);
#94=FACE_OUTER_BOUND('',#137,.T.);
#95=EDGE_LOOP('',(#283,#284,#285,#286));
#96=EDGE_LOOP('',(#287,#288,#289,#290));
#97=EDGE_LOOP('',(#291));
#98=EDGE_LOOP('',(#292));
#99=EDGE_LOOP('',(#293));
#100=EDGE_LOOP('',(#294));
#101=EDGE_LOOP('',(#295,#296,#297,#298));
#102=EDGE_LOOP('',(#299,#300,#301,#302));
#103=EDGE_LOOP('',(#303));
#104=EDGE_LOOP('',(#304));
#105=EDGE_LOOP('',(#305));
#106=EDGE_LOOP('',(#306));
#107=EDGE_LOOP('',(#307,#308,#309,#310,#311));
#108=EDGE_LOOP('',(#312));
#109=EDGE_LOOP('',(#313));
#110=EDGE_LOOP('',(#314,#315,#316,#317,#318));
#111=EDGE_LOOP('',(#319,#320,#321,#322,#323));
#112=EDGE_LOOP('',(#324,#325,#326,#327,#328));
#113=EDGE_LOOP('',(#329));
#114=EDGE_LOOP('',(#330));
#115=EDGE_LOOP('',(#331,#332,#333,#334));
#116=EDGE_LOOP('',(#335,#336,#337,#338));
#117=EDGE_LOOP('',(#339));
#118=EDGE_LOOP('',(#340));
#119=EDGE_LOOP('',(#341,#342,#343,#344));
#120=EDGE_LOOP('',(#345));
#121=EDGE_LOOP('',(#346));
#122=EDGE_LOOP('',(#347));
#123=EDGE_LOOP('',(#348));
#124=EDGE_LOOP('',(#349,#350,#351,#352));
#125=EDGE_LOOP('',(#353));
#126=EDGE_LOOP('',(#354));
#127=EDGE_LOOP('',(#355,#356,#357,#358));
#128=EDGE_LOOP('',(#359,#360,#361,#362));
#129=EDGE_LOOP('',(#363));
#130=EDGE_LOOP('',(#364));
#131=EDGE_LOOP('',(#365));
#132=EDGE_LOOP('',(#366));
#133=EDGE_LOOP('',(#367,#368,#369,#370));
#134=EDGE_LOOP('',(#371,#372,#373,#374));
#135=EDGE_LOOP('',(#375));
#136=EDGE_LOOP('',(#376));
#137=EDGE_LOOP('',(#377));
#138=EDGE_LOOP('',(#378));
#139=LINE('',#674,#155);
#140=LINE('',#680,#156);
#141=LINE('',#689,#157);
#142=LINE('',#695,#158);
#143=LINE('',#703,#159);
#144=LINE('',#713,#160);
#145=LINE('',#718,#161);
#146=LINE('',#724,#162);
#147=LINE('',#733,#163);
#148=LINE('',#739,#164);
#149=LINE('',#746,#165);
#150=LINE('',#751,#166);
#151=LINE('',#757,#167);
#152=LINE('',#763,#168);
#153=LINE('',#771,#169);
#154=LINE('',#777,#170);
#155=VECTOR('',#526,1.5);
#156=VECTOR('',#533,2.475);
#157=VECTOR('',#546,2.5);
#158=VECTOR('',#553,3.);
#159=VECTOR('',#564,5.4);
#160=VECTOR('',#577,6.5);
#161=VECTOR('',#582,5.4);
#162=VECTOR('',#589,6.5);
#163=VECTOR('',#600,2.);
#164=VECTOR('',#607,3.00000004470348);
#165=VECTOR('',#616,3.15);
#166=VECTOR('',#625,4.225);
#167=VECTOR('',#632,2.5);
#168=VECTOR('',#639,3.);
#169=VECTOR('',#650,1.5);
#170=VECTOR('',#657,2.475);
#171=CIRCLE('',#454,1.5);
#172=CIRCLE('',#455,1.5);
#173=CIRCLE('',#457,2.475);
#174=CIRCLE('',#458,2.475);
#175=CIRCLE('',#463,2.5);
#176=CIRCLE('',#464,2.5);
#177=CIRCLE('',#466,3.);
#178=CIRCLE('',#467,3.);
#179=CIRCLE('',#471,4.3);
#180=CIRCLE('',#472,6.5);
#181=CIRCLE('',#473,6.5);
#182=CIRCLE('',#475,4.225);
#183=CIRCLE('',#477,6.5);
#184=CIRCLE('',#479,4.3);
#185=CIRCLE('',#480,6.5);
#186=CIRCLE('',#481,6.5);
#187=CIRCLE('',#483,6.5);
#188=CIRCLE('',#485,4.225);
#189=CIRCLE('',#487,2.);
#190=CIRCLE('',#488,2.);
#191=CIRCLE('',#490,3.00000004470348);
#192=CIRCLE('',#491,3.00000004470348);
#193=CIRCLE('',#494,3.009);
#194=CIRCLE('',#495,3.009);
#195=CIRCLE('',#501,2.5);
#196=CIRCLE('',#502,2.5);
#197=CIRCLE('',#504,3.);
#198=CIRCLE('',#505,3.);
#199=CIRCLE('',#509,1.5);
#200=CIRCLE('',#510,1.5);
#201=CIRCLE('',#512,2.475);
#202=CIRCLE('',#513,2.475);
#203=VERTEX_POINT('',#671);
#204=VERTEX_POINT('',#673);
#205=VERTEX_POINT('',#677);
#206=VERTEX_POINT('',#679);
#207=VERTEX_POINT('',#686);
#208=VERTEX_POINT('',#688);
#209=VERTEX_POINT('',#692);
#210=VERTEX_POINT('',#694);
#211=VERTEX_POINT('',#700);
#212=VERTEX_POINT('',#702);
#213=VERTEX_POINT('',#704);
#214=VERTEX_POINT('',#708);
#215=VERTEX_POINT('',#711);
#216=VERTEX_POINT('',#715);
#217=VERTEX_POINT('',#717);
#218=VERTEX_POINT('',#719);
#219=VERTEX_POINT('',#723);
#220=VERTEX_POINT('',#727);
#221=VERTEX_POINT('',#730);
#222=VERTEX_POINT('',#732);
#223=VERTEX_POINT('',#736);
#224=VERTEX_POINT('',#738);
#225=VERTEX_POINT('',#743);
#226=VERTEX_POINT('',#745);
#227=VERTEX_POINT('',#754);
#228=VERTEX_POINT('',#756);
#229=VERTEX_POINT('',#760);
#230=VERTEX_POINT('',#762);
#231=VERTEX_POINT('',#768);
#232=VERTEX_POINT('',#770);
#233=VERTEX_POINT('',#774);
#234=VERTEX_POINT('',#776);
#235=EDGE_CURVE('',#203,#203,#171,.T.);
#236=EDGE_CURVE('',#203,#204,#139,.T.);
#237=EDGE_CURVE('',#204,#204,#172,.T.);
#238=EDGE_CURVE('',#205,#205,#173,.T.);
#239=EDGE_CURVE('',#205,#206,#140,.T.);
#240=EDGE_CURVE('',#206,#206,#174,.T.);
#241=EDGE_CURVE('',#207,#207,#175,.T.);
#242=EDGE_CURVE('',#207,#208,#141,.T.);
#243=EDGE_CURVE('',#208,#208,#176,.T.);
#244=EDGE_CURVE('',#209,#209,#177,.T.);
#245=EDGE_CURVE('',#209,#210,#142,.T.);
#246=EDGE_CURVE('',#210,#210,#178,.T.);
#247=EDGE_CURVE('',#211,#211,#179,.T.);
#248=EDGE_CURVE('',#211,#212,#143,.T.);
#249=EDGE_CURVE('',#212,#213,#180,.T.);
#250=EDGE_CURVE('',#213,#212,#181,.T.);
#251=EDGE_CURVE('',#214,#214,#182,.T.);
#252=EDGE_CURVE('',#215,#215,#183,.T.);
#253=EDGE_CURVE('',#215,#213,#144,.T.);
#254=EDGE_CURVE('',#216,#216,#184,.T.);
#255=EDGE_CURVE('',#216,#217,#145,.T.);
#256=EDGE_CURVE('',#217,#218,#185,.T.);
#257=EDGE_CURVE('',#218,#217,#186,.T.);
#258=EDGE_CURVE('',#218,#219,#146,.T.);
#259=EDGE_CURVE('',#219,#219,#187,.T.);
#260=EDGE_CURVE('',#220,#220,#188,.T.);
#261=EDGE_CURVE('',#221,#221,#189,.T.);
#262=EDGE_CURVE('',#221,#222,#147,.T.);
#263=EDGE_CURVE('',#222,#222,#190,.T.);
#264=EDGE_CURVE('',#223,#223,#191,.T.);
#265=EDGE_CURVE('',#223,#224,#148,.T.);
#266=EDGE_CURVE('',#224,#224,#192,.T.);
#267=EDGE_CURVE('',#225,#225,#193,.T.);
#268=EDGE_CURVE('',#225,#226,#149,.T.);
#269=EDGE_CURVE('',#226,#226,#194,.T.);
#270=EDGE_CURVE('',#214,#220,#150,.T.);
#271=EDGE_CURVE('',#227,#227,#195,.T.);
#272=EDGE_CURVE('',#227,#228,#151,.T.);
#273=EDGE_CURVE('',#228,#228,#196,.T.);
#274=EDGE_CURVE('',#229,#229,#197,.T.);
#275=EDGE_CURVE('',#229,#230,#152,.T.);
#276=EDGE_CURVE('',#230,#230,#198,.T.);
#277=EDGE_CURVE('',#231,#231,#199,.T.);
#278=EDGE_CURVE('',#231,#232,#153,.T.);
#279=EDGE_CURVE('',#232,#232,#200,.T.);
#280=EDGE_CURVE('',#233,#233,#201,.T.);
#281=EDGE_CURVE('',#233,#234,#154,.T.);
#282=EDGE_CURVE('',#234,#234,#202,.T.);
#283=ORIENTED_EDGE('',*,*,#235,.F.);
#284=ORIENTED_EDGE('',*,*,#236,.T.);
#285=ORIENTED_EDGE('',*,*,#237,.F.);
#286=ORIENTED_EDGE('',*,*,#236,.F.);
#287=ORIENTED_EDGE('',*,*,#238,.F.);
#288=ORIENTED_EDGE('',*,*,#239,.T.);
#289=ORIENTED_EDGE('',*,*,#240,.F.);
#290=ORIENTED_EDGE('',*,*,#239,.F.);
#291=ORIENTED_EDGE('',*,*,#240,.T.);
#292=ORIENTED_EDGE('',*,*,#237,.T.);
#293=ORIENTED_EDGE('',*,*,#238,.T.);
#294=ORIENTED_EDGE('',*,*,#235,.T.);
#295=ORIENTED_EDGE('',*,*,#241,.F.);
#296=ORIENTED_EDGE('',*,*,#242,.T.);
#297=ORIENTED_EDGE('',*,*,#243,.F.);
#298=ORIENTED_EDGE('',*,*,#242,.F.);
#299=ORIENTED_EDGE('',*,*,#244,.F.);
#300=ORIENTED_EDGE('',*,*,#245,.T.);
#301=ORIENTED_EDGE('',*,*,#246,.F.);
#302=ORIENTED_EDGE('',*,*,#245,.F.);
#303=ORIENTED_EDGE('',*,*,#246,.T.);
#304=ORIENTED_EDGE('',*,*,#241,.T.);
#305=ORIENTED_EDGE('',*,*,#244,.T.);
#306=ORIENTED_EDGE('',*,*,#243,.T.);
#307=ORIENTED_EDGE('',*,*,#247,.T.);
#308=ORIENTED_EDGE('',*,*,#248,.T.);
#309=ORIENTED_EDGE('',*,*,#249,.T.);
#310=ORIENTED_EDGE('',*,*,#250,.T.);
#311=ORIENTED_EDGE('',*,*,#248,.F.);
#312=ORIENTED_EDGE('',*,*,#247,.F.);
#313=ORIENTED_EDGE('',*,*,#251,.T.);
#314=ORIENTED_EDGE('',*,*,#252,.F.);
#315=ORIENTED_EDGE('',*,*,#253,.T.);
#316=ORIENTED_EDGE('',*,*,#249,.F.);
#317=ORIENTED_EDGE('',*,*,#250,.F.);
#318=ORIENTED_EDGE('',*,*,#253,.F.);
#319=ORIENTED_EDGE('',*,*,#254,.T.);
#320=ORIENTED_EDGE('',*,*,#255,.T.);
#321=ORIENTED_EDGE('',*,*,#256,.T.);
#322=ORIENTED_EDGE('',*,*,#257,.T.);
#323=ORIENTED_EDGE('',*,*,#255,.F.);
#324=ORIENTED_EDGE('',*,*,#256,.F.);
#325=ORIENTED_EDGE('',*,*,#257,.F.);
#326=ORIENTED_EDGE('',*,*,#258,.T.);
#327=ORIENTED_EDGE('',*,*,#259,.F.);
#328=ORIENTED_EDGE('',*,*,#258,.F.);
#329=ORIENTED_EDGE('',*,*,#254,.F.);
#330=ORIENTED_EDGE('',*,*,#260,.T.);
#331=ORIENTED_EDGE('',*,*,#261,.F.);
#332=ORIENTED_EDGE('',*,*,#262,.T.);
#333=ORIENTED_EDGE('',*,*,#263,.F.);
#334=ORIENTED_EDGE('',*,*,#262,.F.);
#335=ORIENTED_EDGE('',*,*,#264,.F.);
#336=ORIENTED_EDGE('',*,*,#265,.T.);
#337=ORIENTED_EDGE('',*,*,#266,.T.);
#338=ORIENTED_EDGE('',*,*,#265,.F.);
#339=ORIENTED_EDGE('',*,*,#266,.F.);
#340=ORIENTED_EDGE('',*,*,#261,.T.);
#341=ORIENTED_EDGE('',*,*,#267,.F.);
#342=ORIENTED_EDGE('',*,*,#268,.T.);
#343=ORIENTED_EDGE('',*,*,#269,.T.);
#344=ORIENTED_EDGE('',*,*,#268,.F.);
#345=ORIENTED_EDGE('',*,*,#269,.F.);
#346=ORIENTED_EDGE('',*,*,#263,.T.);
#347=ORIENTED_EDGE('',*,*,#252,.T.);
#348=ORIENTED_EDGE('',*,*,#267,.T.);
#349=ORIENTED_EDGE('',*,*,#251,.F.);
#350=ORIENTED_EDGE('',*,*,#270,.T.);
#351=ORIENTED_EDGE('',*,*,#260,.F.);
#352=ORIENTED_EDGE('',*,*,#270,.F.);
#353=ORIENTED_EDGE('',*,*,#259,.T.);
#354=ORIENTED_EDGE('',*,*,#264,.T.);
#355=ORIENTED_EDGE('',*,*,#271,.F.);
#356=ORIENTED_EDGE('',*,*,#272,.T.);
#357=ORIENTED_EDGE('',*,*,#273,.F.);
#358=ORIENTED_EDGE('',*,*,#272,.F.);
#359=ORIENTED_EDGE('',*,*,#274,.F.);
#360=ORIENTED_EDGE('',*,*,#275,.T.);
#361=ORIENTED_EDGE('',*,*,#276,.F.);
#362=ORIENTED_EDGE('',*,*,#275,.F.);
#363=ORIENTED_EDGE('',*,*,#276,.T.);
#364=ORIENTED_EDGE('',*,*,#271,.T.);
#365=ORIENTED_EDGE('',*,*,#274,.T.);
#366=ORIENTED_EDGE('',*,*,#273,.T.);
#367=ORIENTED_EDGE('',*,*,#277,.F.);
#368=ORIENTED_EDGE('',*,*,#278,.T.);
#369=ORIENTED_EDGE('',*,*,#279,.F.);
#370=ORIENTED_EDGE('',*,*,#278,.F.);
#371=ORIENTED_EDGE('',*,*,#280,.F.);
#372=ORIENTED_EDGE('',*,*,#281,.T.);
#373=ORIENTED_EDGE('',*,*,#282,.F.);
#374=ORIENTED_EDGE('',*,*,#281,.F.);
#375=ORIENTED_EDGE('',*,*,#282,.T.);
#376=ORIENTED_EDGE('',*,*,#279,.T.);
#377=ORIENTED_EDGE('',*,*,#280,.T.);
#378=ORIENTED_EDGE('',*,*,#277,.T.);
#379=CYLINDRICAL_SURFACE('',#453,1.5);
#380=CYLINDRICAL_SURFACE('',#456,2.475);
#381=CYLINDRICAL_SURFACE('',#462,2.5);
#382=CYLINDRICAL_SURFACE('',#465,3.);
#383=CYLINDRICAL_SURFACE('',#476,6.5);
#384=CYLINDRICAL_SURFACE('',#482,6.5);
#385=CYLINDRICAL_SURFACE('',#486,2.);
#386=CYLINDRICAL_SURFACE('',#489,3.00000004470348);
#387=CYLINDRICAL_SURFACE('',#493,3.009);
#388=CYLINDRICAL_SURFACE('',#498,4.225);
#389=CYLINDRICAL_SURFACE('',#500,2.5);
#390=CYLINDRICAL_SURFACE('',#503,3.);
#391=CYLINDRICAL_SURFACE('',#508,1.5);
#392=CYLINDRICAL_SURFACE('',#511,2.475);
#393=ADVANCED_FACE('',(#65),#379,.F.);
#394=ADVANCED_FACE('',(#66),#380,.T.);
#395=ADVANCED_FACE('',(#67,#37),#51,.T.);
#396=ADVANCED_FACE('',(#68,#38),#52,.T.);
#397=ADVANCED_FACE('',(#69),#381,.F.);
#398=ADVANCED_FACE('',(#70),#382,.T.);
#399=ADVANCED_FACE('',(#71,#39),#53,.T.);
#400=ADVANCED_FACE('',(#72,#40),#54,.T.);
#401=ADVANCED_FACE('',(#73),#19,.T.);
#402=ADVANCED_FACE('',(#74,#41),#55,.T.);
#403=ADVANCED_FACE('',(#75),#383,.T.);
#404=ADVANCED_FACE('',(#76),#20,.T.);
#405=ADVANCED_FACE('',(#77),#384,.T.);
#406=ADVANCED_FACE('',(#78,#42),#56,.T.);
#407=ADVANCED_FACE('',(#79),#385,.F.);
#408=ADVANCED_FACE('',(#80),#386,.F.);
#409=ADVANCED_FACE('',(#81,#43),#57,.T.);
#410=ADVANCED_FACE('',(#82),#387,.F.);
#411=ADVANCED_FACE('',(#83,#44),#58,.T.);
#412=ADVANCED_FACE('',(#84,#45),#59,.T.);
#413=ADVANCED_FACE('',(#85),#388,.T.);
#414=ADVANCED_FACE('',(#86,#46),#60,.T.);
#415=ADVANCED_FACE('',(#87),#389,.F.);
#416=ADVANCED_FACE('',(#88),#390,.T.);
#417=ADVANCED_FACE('',(#89,#47),#61,.T.);
#418=ADVANCED_FACE('',(#90,#48),#62,.T.);
#419=ADVANCED_FACE('',(#91),#391,.F.);
#420=ADVANCED_FACE('',(#92),#392,.T.);
#421=ADVANCED_FACE('',(#93,#49),#63,.T.);
#422=ADVANCED_FACE('',(#94,#50),#64,.T.);
#423=CLOSED_SHELL('',(#393,#394,#395,#396));
#424=CLOSED_SHELL('',(#397,#398,#399,#400));
#425=CLOSED_SHELL('',(#401,#402,#403,#404,#405,#406,#407,#408,#409,#410,
#411,#412,#413,#414));
#426=CLOSED_SHELL('',(#415,#416,#417,#418));
#427=CLOSED_SHELL('',(#419,#420,#421,#422));
#428=DERIVED_UNIT_ELEMENT(#432,1.);
#429=DERIVED_UNIT_ELEMENT(#792,3.);
#430=DERIVED_UNIT_ELEMENT(#432,1.);
#431=DERIVED_UNIT_ELEMENT(#792,3.);
#432=(
MASS_UNIT()
NAMED_UNIT(*)
SI_UNIT(.KILO.,.GRAM.)
);
#433=DERIVED_UNIT((#428,#429));
#434=DERIVED_UNIT((#430,#431));
#435=MEASURE_REPRESENTATION_ITEM('density measure',
POSITIVE_RATIO_MEASURE(7850.),#433);
#436=MEASURE_REPRESENTATION_ITEM('density measure',
POSITIVE_RATIO_MEASURE(7850.),#434);
#437=PROPERTY_DEFINITION_REPRESENTATION(#447,#441);
#438=PROPERTY_DEFINITION_REPRESENTATION(#448,#442);
#439=PROPERTY_DEFINITION_REPRESENTATION(#449,#443);
#440=PROPERTY_DEFINITION_REPRESENTATION(#450,#444);
#441=REPRESENTATION('material name',(#445),#788);
#442=REPRESENTATION('density',(#435),#788);
#443=REPRESENTATION('material name',(#446),#789);
#444=REPRESENTATION('density',(#436),#789);
#445=DESCRIPTIVE_REPRESENTATION_ITEM('Steel','Steel');
#446=DESCRIPTIVE_REPRESENTATION_ITEM('Steel','Steel');
#447=PROPERTY_DEFINITION('material property','material name',#808);
#448=PROPERTY_DEFINITION('material property','density of part',#808);
#449=PROPERTY_DEFINITION('material property','material name',#809);
#450=PROPERTY_DEFINITION('material property','density of part',#809);
#451=AXIS2_PLACEMENT_3D('placement',#668,#518,#519);
#452=AXIS2_PLACEMENT_3D('placement',#669,#520,#521);
#453=AXIS2_PLACEMENT_3D('',#670,#522,#523);
#454=AXIS2_PLACEMENT_3D('',#672,#524,#525);
#455=AXIS2_PLACEMENT_3D('',#675,#527,#528);
#456=AXIS2_PLACEMENT_3D('',#676,#529,#530);
#457=AXIS2_PLACEMENT_3D('',#678,#531,#532);
#458=AXIS2_PLACEMENT_3D('',#681,#534,#535);
#459=AXIS2_PLACEMENT_3D('',#682,#536,#537);
#460=AXIS2_PLACEMENT_3D('',#683,#538,#539);
#461=AXIS2_PLACEMENT_3D('placement',#684,#540,#541);
#462=AXIS2_PLACEMENT_3D('',#685,#542,#543);
#463=AXIS2_PLACEMENT_3D('',#687,#544,#545);
#464=AXIS2_PLACEMENT_3D('',#690,#547,#548);
#465=AXIS2_PLACEMENT_3D('',#691,#549,#550);
#466=AXIS2_PLACEMENT_3D('',#693,#551,#552);
#467=AXIS2_PLACEMENT_3D('',#696,#554,#555);
#468=AXIS2_PLACEMENT_3D('',#697,#556,#557);
#469=AXIS2_PLACEMENT_3D('',#698,#558,#559);
#470=AXIS2_PLACEMENT_3D('',#699,#560,#561);
#471=AXIS2_PLACEMENT_3D('',#701,#562,#563);
#472=AXIS2_PLACEMENT_3D('',#705,#565,#566);
#473=AXIS2_PLACEMENT_3D('',#706,#567,#568);
#474=AXIS2_PLACEMENT_3D('',#707,#569,#570);
#475=AXIS2_PLACEMENT_3D('',#709,#571,#572);
#476=AXIS2_PLACEMENT_3D('',#710,#573,#574);
#477=AXIS2_PLACEMENT_3D('',#712,#575,#576);
#478=AXIS2_PLACEMENT_3D('',#714,#578,#579);
#479=AXIS2_PLACEMENT_3D('',#716,#580,#581);
#480=AXIS2_PLACEMENT_3D('',#720,#583,#584);
#481=AXIS2_PLACEMENT_3D('',#721,#585,#586);
#482=AXIS2_PLACEMENT_3D('',#722,#587,#588);
#483=AXIS2_PLACEMENT_3D('',#725,#590,#591);
#484=AXIS2_PLACEMENT_3D('',#726,#592,#593);
#485=AXIS2_PLACEMENT_3D('',#728,#594,#595);
#486=AXIS2_PLACEMENT_3D('',#729,#596,#597);
#487=AXIS2_PLACEMENT_3D('',#731,#598,#599);
#488=AXIS2_PLACEMENT_3D('',#734,#601,#602);
#489=AXIS2_PLACEMENT_3D('',#735,#603,#604);
#490=AXIS2_PLACEMENT_3D('',#737,#605,#606);
#491=AXIS2_PLACEMENT_3D('',#740,#608,#609);
#492=AXIS2_PLACEMENT_3D('',#741,#610,#611);
#493=AXIS2_PLACEMENT_3D('',#742,#612,#613);
#494=AXIS2_PLACEMENT_3D('',#744,#614,#615);
#495=AXIS2_PLACEMENT_3D('',#747,#617,#618);
#496=AXIS2_PLACEMENT_3D('',#748,#619,#620);
#497=AXIS2_PLACEMENT_3D('',#749,#621,#622);
#498=AXIS2_PLACEMENT_3D('',#750,#623,#624);
#499=AXIS2_PLACEMENT_3D('',#752,#626,#627);
#500=AXIS2_PLACEMENT_3D('',#753,#628,#629);
#501=AXIS2_PLACEMENT_3D('',#755,#630,#631);
#502=AXIS2_PLACEMENT_3D('',#758,#633,#634);
#503=AXIS2_PLACEMENT_3D('',#759,#635,#636);
#504=AXIS2_PLACEMENT_3D('',#761,#637,#638);
#505=AXIS2_PLACEMENT_3D('',#764,#640,#641);
#506=AXIS2_PLACEMENT_3D('',#765,#642,#643);
#507=AXIS2_PLACEMENT_3D('',#766,#644,#645);
#508=AXIS2_PLACEMENT_3D('',#767,#646,#647);
#509=AXIS2_PLACEMENT_3D('',#769,#648,#649);
#510=AXIS2_PLACEMENT_3D('',#772,#651,#652);
#511=AXIS2_PLACEMENT_3D('',#773,#653,#654);
#512=AXIS2_PLACEMENT_3D('',#775,#655,#656);
#513=AXIS2_PLACEMENT_3D('',#778,#658,#659);
#514=AXIS2_PLACEMENT_3D('',#779,#660,#661);
#515=AXIS2_PLACEMENT_3D('',#780,#662,#663);
#516=AXIS2_PLACEMENT_3D('',#781,#664,#665);
#517=AXIS2_PLACEMENT_3D('',#782,#666,#667);
#518=DIRECTION('axis',(0.,0.,1.));
#519=DIRECTION('refdir',(1.,0.,0.));
#520=DIRECTION('axis',(0.,0.,1.));
#521=DIRECTION('refdir',(1.,0.,0.));
#522=DIRECTION('center_axis',(0.,0.,-1.));
#523=DIRECTION('ref_axis',(1.,0.,0.));
#524=DIRECTION('center_axis',(0.,0.,-1.));
#525=DIRECTION('ref_axis',(1.,0.,0.));
#526=DIRECTION('',(0.,0.,-1.));
#527=DIRECTION('center_axis',(0.,0.,1.));
#528=DIRECTION('ref_axis',(1.,0.,0.));
#529=DIRECTION('center_axis',(0.,0.,1.));
#530=DIRECTION('ref_axis',(1.,0.,0.));
#531=DIRECTION('center_axis',(0.,0.,1.));
#532=DIRECTION('ref_axis',(1.,0.,0.));
#533=DIRECTION('',(0.,0.,-1.));
#534=DIRECTION('center_axis',(0.,0.,-1.));
#535=DIRECTION('ref_axis',(1.,0.,0.));
#536=DIRECTION('center_axis',(0.,0.,-1.));
#537=DIRECTION('ref_axis',(-1.,0.,0.));
#538=DIRECTION('center_axis',(0.,0.,1.));
#539=DIRECTION('ref_axis',(1.,0.,0.));
#540=DIRECTION('axis',(0.,0.,1.));
#541=DIRECTION('refdir',(1.,0.,0.));
#542=DIRECTION('center_axis',(0.,0.,1.));
#543=DIRECTION('ref_axis',(-1.,0.,0.));
#544=DIRECTION('center_axis',(0.,0.,1.));
#545=DIRECTION('ref_axis',(-1.,0.,0.));
#546=DIRECTION('',(0.,0.,1.));
#547=DIRECTION('center_axis',(0.,0.,-1.));
#548=DIRECTION('ref_axis',(-1.,0.,0.));
#549=DIRECTION('center_axis',(0.,0.,1.));
#550=DIRECTION('ref_axis',(1.,0.,0.));
#551=DIRECTION('center_axis',(0.,0.,1.));
#552=DIRECTION('ref_axis',(1.,0.,0.));
#553=DIRECTION('',(0.,0.,-1.));
#554=DIRECTION('center_axis',(0.,0.,-1.));
#555=DIRECTION('ref_axis',(1.,0.,0.));
#556=DIRECTION('center_axis',(0.,0.,-1.));
#557=DIRECTION('ref_axis',(-1.,0.,0.));
#558=DIRECTION('center_axis',(0.,0.,1.));
#559=DIRECTION('ref_axis',(1.,0.,0.));
#560=DIRECTION('center_axis',(0.,0.,1.));
#561=DIRECTION('ref_axis',(-1.,0.,0.));
#562=DIRECTION('center_axis',(0.,0.,1.));
#563=DIRECTION('ref_axis',(-1.,0.,0.));
#564=DIRECTION('',(0.9989685402103,-1.22338362521745E-16,0.04540766091865));
#565=DIRECTION('center_axis',(0.,0.,-1.));
#566=DIRECTION('ref_axis',(-1.,0.,0.));
#567=DIRECTION('center_axis',(0.,0.,-1.));
#568=DIRECTION('ref_axis',(-1.,0.,0.));
#569=DIRECTION('center_axis',(0.,0.,-1.));
#570=DIRECTION('ref_axis',(-1.,0.,0.));
#571=DIRECTION('center_axis',(0.,0.,1.));
#572=DIRECTION('ref_axis',(-1.,0.,0.));
#573=DIRECTION('center_axis',(0.,0.,1.));
#574=DIRECTION('ref_axis',(1.,0.,0.));
#575=DIRECTION('center_axis',(0.,0.,1.));
#576=DIRECTION('ref_axis',(1.,0.,0.));
#577=DIRECTION('',(0.,0.,-1.));
#578=DIRECTION('center_axis',(0.,0.,-1.));
#579=DIRECTION('ref_axis',(-1.,0.,0.));
#580=DIRECTION('center_axis',(0.,0.,-1.));
#581=DIRECTION('ref_axis',(-1.,0.,0.));
#582=DIRECTION('',(0.9989685402103,1.22338362521745E-16,-0.04540766091865));
#583=DIRECTION('center_axis',(0.,0.,1.));
#584=DIRECTION('ref_axis',(-1.,0.,0.));
#585=DIRECTION('center_axis',(0.,0.,1.));
#586=DIRECTION('ref_axis',(-1.,0.,0.));
#587=DIRECTION('center_axis',(0.,0.,1.));
#588=DIRECTION('ref_axis',(1.,0.,0.));
#589=DIRECTION('',(0.,0.,-1.));
#590=DIRECTION('center_axis',(0.,0.,-1.));
#591=DIRECTION('ref_axis',(1.,0.,0.));
#592=DIRECTION('center_axis',(0.,0.,1.));
#593=DIRECTION('ref_axis',(1.,0.,0.));
#594=DIRECTION('center_axis',(0.,0.,-1.));
#595=DIRECTION('ref_axis',(-1.,0.,0.));
#596=DIRECTION('center_axis',(0.,0.,1.));
#597=DIRECTION('ref_axis',(-1.,0.,0.));
#598=DIRECTION('center_axis',(0.,0.,1.));
#599=DIRECTION('ref_axis',(-1.,0.,0.));
#600=DIRECTION('',(0.,0.,1.));
#601=DIRECTION('center_axis',(0.,0.,-1.));
#602=DIRECTION('ref_axis',(-1.,0.,0.));
#603=DIRECTION('center_axis',(0.,0.,1.));
#604=DIRECTION('ref_axis',(1.,0.,0.));
#605=DIRECTION('center_axis',(0.,0.,1.));
#606=DIRECTION('ref_axis',(1.,0.,0.));
#607=DIRECTION('',(0.,0.,1.));
#608=DIRECTION('center_axis',(0.,0.,1.));
#609=DIRECTION('ref_axis',(1.,0.,0.));
#610=DIRECTION('center_axis',(0.,0.,-1.));
#611=DIRECTION('ref_axis',(1.,0.,0.));
#612=DIRECTION('center_axis',(0.,0.,-1.));
#613=DIRECTION('ref_axis',(-1.,0.,0.));
#614=DIRECTION('center_axis',(0.,0.,-1.));
#615=DIRECTION('ref_axis',(-1.,0.,0.));
#616=DIRECTION('',(0.,0.,-1.));
#617=DIRECTION('center_axis',(0.,0.,-1.));
#618=DIRECTION('ref_axis',(-1.,0.,0.));
#619=DIRECTION('center_axis',(0.,0.,1.));
#620=DIRECTION('ref_axis',(-1.,0.,0.));
#621=DIRECTION('center_axis',(0.,0.,1.));
#622=DIRECTION('ref_axis',(1.,0.,0.));
#623=DIRECTION('center_axis',(0.,0.,1.));
#624=DIRECTION('ref_axis',(-1.,0.,0.));
#625=DIRECTION('',(0.,0.,-1.));
#626=DIRECTION('center_axis',(0.,0.,-1.));
#627=DIRECTION('ref_axis',(-1.,0.,0.));
#628=DIRECTION('center_axis',(0.,0.,1.));
#629=DIRECTION('ref_axis',(-1.,0.,0.));
#630=DIRECTION('center_axis',(0.,0.,1.));
#631=DIRECTION('ref_axis',(-1.,0.,0.));
#632=DIRECTION('',(0.,0.,1.));
#633=DIRECTION('center_axis',(0.,0.,-1.));
#634=DIRECTION('ref_axis',(-1.,0.,0.));
#635=DIRECTION('center_axis',(0.,0.,1.));
#636=DIRECTION('ref_axis',(1.,0.,0.));
#637=DIRECTION('center_axis',(0.,0.,1.));
#638=DIRECTION('ref_axis',(1.,0.,0.));
#639=DIRECTION('',(0.,0.,-1.));
#640=DIRECTION('center_axis',(0.,0.,-1.));
#641=DIRECTION('ref_axis',(1.,0.,0.));
#642=DIRECTION('center_axis',(0.,0.,-1.));
#643=DIRECTION('ref_axis',(-1.,0.,0.));
#644=DIRECTION('center_axis',(0.,0.,1.));
#645=DIRECTION('ref_axis',(1.,0.,0.));
#646=DIRECTION('center_axis',(0.,0.,-1.));
#647=DIRECTION('ref_axis',(1.,0.,0.));
#648=DIRECTION('center_axis',(0.,0.,-1.));
#649=DIRECTION('ref_axis',(1.,0.,0.));
#650=DIRECTION('',(0.,0.,-1.));
#651=DIRECTION('center_axis',(0.,0.,1.));
#652=DIRECTION('ref_axis',(1.,0.,0.));
#653=DIRECTION('center_axis',(0.,0.,1.));
#654=DIRECTION('ref_axis',(1.,0.,0.));
#655=DIRECTION('center_axis',(0.,0.,1.));
#656=DIRECTION('ref_axis',(1.,0.,0.));
#657=DIRECTION('',(0.,0.,-1.));
#658=DIRECTION('center_axis',(0.,0.,-1.));
#659=DIRECTION('ref_axis',(1.,0.,0.));
#660=DIRECTION('center_axis',(0.,0.,-1.));
#661=DIRECTION('ref_axis',(-1.,0.,0.));
#662=DIRECTION('center_axis',(0.,0.,1.));
#663=DIRECTION('ref_axis',(1.,0.,0.));
#664=DIRECTION('',(0.,0.,1.));
#665=DIRECTION('',(1.,0.,0.));
#666=DIRECTION('',(0.,0.,1.));
#667=DIRECTION('',(1.,0.,0.));
#668=CARTESIAN_POINT('',(0.,0.,0.));
#669=CARTESIAN_POINT('',(0.,0.,0.));
#670=CARTESIAN_POINT('Origin',(0.,0.,-2.775));
#671=CARTESIAN_POINT('',(-1.5,1.83697019872103E-16,-1.6));
#672=CARTESIAN_POINT('Origin',(0.,0.,-1.6));
#673=CARTESIAN_POINT('',(-1.5,1.83697019872103E-16,-3.95));
#674=CARTESIAN_POINT('',(-1.5,1.83697019872103E-16,-2.775));
#675=CARTESIAN_POINT('Origin',(0.,0.,-3.95));
#676=CARTESIAN_POINT('Origin',(0.,0.,-2.775));
#677=CARTESIAN_POINT('',(-2.475,-3.0310008278897E-16,-1.6));
#678=CARTESIAN_POINT('Origin',(0.,0.,-1.6));
#679=CARTESIAN_POINT('',(-2.475,-3.0310008278897E-16,-3.95));
#680=CARTESIAN_POINT('',(-2.475,-3.0310008278897E-16,-2.775));
#681=CARTESIAN_POINT('Origin',(0.,0.,-3.95));
#682=CARTESIAN_POINT('Origin',(0.,0.,-3.95));
#683=CARTESIAN_POINT('Origin',(0.,0.,-1.6));
#684=CARTESIAN_POINT('',(0.,0.,0.));
#685=CARTESIAN_POINT('Origin',(0.,0.,-2.2));
#686=CARTESIAN_POINT('',(2.5,3.06161699786838E-16,-3.95));
#687=CARTESIAN_POINT('Origin',(0.,0.,-3.95));
#688=CARTESIAN_POINT('',(2.5,-5.55111512312578E-16,-1.6));
#689=CARTESIAN_POINT('',(2.5,3.06161699786838E-16,-2.2));
#690=CARTESIAN_POINT('Origin',(0.,0.,-1.6));
#691=CARTESIAN_POINT('Origin',(0.,0.,-2.775));
#692=CARTESIAN_POINT('',(-3.,-3.67394039744206E-16,-1.6));
#693=CARTESIAN_POINT('Origin',(0.,0.,-1.6));
#694=CARTESIAN_POINT('',(-3.,-3.67394039744206E-16,-3.95));
#695=CARTESIAN_POINT('',(-3.,-3.67394039744206E-16,-2.775));
#696=CARTESIAN_POINT('Origin',(0.,0.,-3.95));
#697=CARTESIAN_POINT('Origin',(0.,0.,-3.95));
#698=CARTESIAN_POINT('Origin',(0.,0.,-1.6));
#699=CARTESIAN_POINT('Origin',(5.55111512312578E-16,0.,3.35));
#700=CARTESIAN_POINT('',(4.3,5.26598123633362E-16,3.3));
#701=CARTESIAN_POINT('Origin',(5.55111512312578E-16,0.,3.3));
#702=CARTESIAN_POINT('',(6.5,-7.9602041944578E-16,3.4));
#703=CARTESIAN_POINT('',(5.4,-6.61309271539571E-16,3.35));
#704=CARTESIAN_POINT('',(-6.5,-7.9602041944578E-16,3.4));
#705=CARTESIAN_POINT('Origin',(5.55111512312578E-16,0.,3.4));
#706=CARTESIAN_POINT('Origin',(5.55111512312578E-16,0.,3.4));
#707=CARTESIAN_POINT('Origin',(5.55111512312578E-16,0.,3.3));
#708=CARTESIAN_POINT('',(4.225,5.17413272639757E-16,3.3));
#709=CARTESIAN_POINT('Origin',(0.,0.,3.3));
#710=CARTESIAN_POINT('Origin',(5.55111512312578E-16,0.,3.8));
#711=CARTESIAN_POINT('',(-6.5,-7.9602041944578E-16,4.3));
#712=CARTESIAN_POINT('Origin',(5.55111512312578E-16,0.,4.3));
#713=CARTESIAN_POINT('',(-6.5,-7.9602041944578E-16,3.8));
#714=CARTESIAN_POINT('Origin',(0.,0.,-3.05));
#715=CARTESIAN_POINT('',(4.3,-5.26598123633362E-16,-3.));
#716=CARTESIAN_POINT('Origin',(0.,0.,-3.));
#717=CARTESIAN_POINT('',(6.5,7.9602041944578E-16,-3.1));
#718=CARTESIAN_POINT('',(5.4,6.61309271539571E-16,-3.05));
#719=CARTESIAN_POINT('',(-6.5,-7.9602041944578E-16,-3.1));
#720=CARTESIAN_POINT('Origin',(0.,0.,-3.1));
#721=CARTESIAN_POINT('Origin',(0.,0.,-3.1));
#722=CARTESIAN_POINT('Origin',(0.,0.,-3.5));
#723=CARTESIAN_POINT('',(-6.5,-7.9602041944578E-16,-4.));
#724=CARTESIAN_POINT('',(-6.5,-7.9602041944578E-16,-3.5));
#725=CARTESIAN_POINT('Origin',(0.,0.,-4.));
#726=CARTESIAN_POINT('Origin',(0.,0.,-3.));
#727=CARTESIAN_POINT('',(4.225,5.17413272639757E-16,-3.));
#728=CARTESIAN_POINT('Origin',(0.,0.,-3.));
#729=CARTESIAN_POINT('Origin',(1.169451567182E-16,0.,0.15));
#730=CARTESIAN_POINT('',(2.,2.44929359829471E-16,-1.6));
#731=CARTESIAN_POINT('Origin',(1.169451567182E-16,0.,-1.6));
#732=CARTESIAN_POINT('',(2.,2.44929359829471E-16,1.9));
#733=CARTESIAN_POINT('',(2.,2.44929359829471E-16,0.15));
#734=CARTESIAN_POINT('Origin',(1.169451567182E-16,0.,1.9));
#735=CARTESIAN_POINT('Origin',(0.,0.,-4.));
#736=CARTESIAN_POINT('',(-3.00000004470348,3.67394045218804E-16,-4.));
#737=CARTESIAN_POINT('Origin',(0.,0.,-4.));
#738=CARTESIAN_POINT('',(-3.00000004470348,3.67394045218804E-16,-1.6));
#739=CARTESIAN_POINT('',(-3.00000004470348,-3.67394045218804E-16,-4.));
#740=CARTESIAN_POINT('Origin',(0.,0.,-1.6));
#741=CARTESIAN_POINT('Origin',(0.,0.,-1.6));
#742=CARTESIAN_POINT('Origin',(5.55111512312578E-16,0.,4.3));
#743=CARTESIAN_POINT('',(3.009,-3.68496221863439E-16,4.3));
#744=CARTESIAN_POINT('Origin',(5.55111512312578E-16,0.,4.3));
#745=CARTESIAN_POINT('',(3.009,-3.68496221863439E-16,1.9));
#746=CARTESIAN_POINT('',(3.009,-3.68496221863439E-16,4.3));
#747=CARTESIAN_POINT('Origin',(5.55111512312578E-16,0.,1.9));
#748=CARTESIAN_POINT('Origin',(5.55111512312578E-16,0.,1.9));
#749=CARTESIAN_POINT('Origin',(5.55111512312578E-16,0.,4.3));
#750=CARTESIAN_POINT('Origin',(0.,0.,-3.));
#751=CARTESIAN_POINT('',(4.225,5.17413272639757E-16,-3.));
#752=CARTESIAN_POINT('Origin',(0.,0.,-4.));
#753=CARTESIAN_POINT('Origin',(0.,0.,3.65));
#754=CARTESIAN_POINT('',(2.5,3.06161699786838E-16,1.9));
#755=CARTESIAN_POINT('Origin',(0.,0.,1.9));
#756=CARTESIAN_POINT('',(2.5,-3.06161699786838E-16,4.25));
#757=CARTESIAN_POINT('',(2.5,3.06161699786838E-16,3.65));
#758=CARTESIAN_POINT('Origin',(0.,0.,4.25));
#759=CARTESIAN_POINT('Origin',(0.,0.,3.075));
#760=CARTESIAN_POINT('',(-3.,-3.67394039744206E-16,4.25));
#761=CARTESIAN_POINT('Origin',(0.,0.,4.25));
#762=CARTESIAN_POINT('',(-3.,-3.67394039744206E-16,1.9));
#763=CARTESIAN_POINT('',(-3.,-3.67394039744206E-16,3.075));
#764=CARTESIAN_POINT('Origin',(0.,0.,1.9));
#765=CARTESIAN_POINT('Origin',(0.,0.,1.9));
#766=CARTESIAN_POINT('Origin',(0.,0.,4.25));
#767=CARTESIAN_POINT('Origin',(0.,0.,3.075));
#768=CARTESIAN_POINT('',(-1.5,1.83697019872103E-16,4.25));
#769=CARTESIAN_POINT('Origin',(0.,0.,4.25));
#770=CARTESIAN_POINT('',(-1.5,1.83697019872103E-16,1.9));
#771=CARTESIAN_POINT('',(-1.5,1.83697019872103E-16,3.075));
#772=CARTESIAN_POINT('Origin',(0.,0.,1.9));
#773=CARTESIAN_POINT('Origin',(0.,0.,3.075));
#774=CARTESIAN_POINT('',(-2.475,-3.0310008278897E-16,4.25));
#775=CARTESIAN_POINT('Origin',(0.,0.,4.25));
#776=CARTESIAN_POINT('',(-2.475,-3.0310008278897E-16,1.9));
#777=CARTESIAN_POINT('',(-2.475,-3.0310008278897E-16,3.075));
#778=CARTESIAN_POINT('Origin',(0.,0.,1.9));
#779=CARTESIAN_POINT('Origin',(0.,0.,1.9));
#780=CARTESIAN_POINT('Origin',(0.,0.,4.25));
#781=CARTESIAN_POINT('',(0.,0.,0.));
#782=CARTESIAN_POINT('',(0.,0.,0.));
#783=UNCERTAINTY_MEASURE_WITH_UNIT(LENGTH_MEASURE(0.01),#791,
'DISTANCE_ACCURACY_VALUE',
'Maximum model space distance between geometric entities at asserted c
onnectivities');
#784=UNCERTAINTY_MEASURE_WITH_UNIT(LENGTH_MEASURE(0.01),#791,
'DISTANCE_ACCURACY_VALUE',
'Maximum model space distance between geometric entities at asserted c
onnectivities');
#785=UNCERTAINTY_MEASURE_WITH_UNIT(LENGTH_MEASURE(0.01),#791,
'DISTANCE_ACCURACY_VALUE',
'Maximum model space distance between geometric entities at asserted c
onnectivities');
#786=UNCERTAINTY_MEASURE_WITH_UNIT(LENGTH_MEASURE(0.01),#791,
'DISTANCE_ACCURACY_VALUE',
'Maximum model space distance between geometric entities at asserted c
onnectivities');
#787=(
GEOMETRIC_REPRESENTATION_CONTEXT(3)
GLOBAL_UNCERTAINTY_ASSIGNED_CONTEXT((#783))
GLOBAL_UNIT_ASSIGNED_CONTEXT((#791,#793,#794))
REPRESENTATION_CONTEXT('','3D')
);
#788=(
GEOMETRIC_REPRESENTATION_CONTEXT(3)
GLOBAL_UNCERTAINTY_ASSIGNED_CONTEXT((#784))
GLOBAL_UNIT_ASSIGNED_CONTEXT((#791,#793,#794))
REPRESENTATION_CONTEXT('','3D')
);
#789=(
GEOMETRIC_REPRESENTATION_CONTEXT(3)
GLOBAL_UNCERTAINTY_ASSIGNED_CONTEXT((#785))
GLOBAL_UNIT_ASSIGNED_CONTEXT((#791,#793,#794))
REPRESENTATION_CONTEXT('','3D')
);
#790=(
GEOMETRIC_REPRESENTATION_CONTEXT(3)
GLOBAL_UNCERTAINTY_ASSIGNED_CONTEXT((#786))
GLOBAL_UNIT_ASSIGNED_CONTEXT((#791,#793,#794))
REPRESENTATION_CONTEXT('','3D')
);
#791=(
LENGTH_UNIT()
NAMED_UNIT(*)
SI_UNIT(.MILLI.,.METRE.)
);
#792=(
LENGTH_UNIT()
NAMED_UNIT(*)
SI_UNIT($,.METRE.)
);
#793=(
NAMED_UNIT(*)
PLANE_ANGLE_UNIT()
SI_UNIT($,.RADIAN.)
);
#794=(
NAMED_UNIT(*)
SI_UNIT($,.STERADIAN.)
SOLID_ANGLE_UNIT()
);
#795=SHAPE_DEFINITION_REPRESENTATION(#798,#803);
#796=SHAPE_DEFINITION_REPRESENTATION(#799,#804);
#797=SHAPE_DEFINITION_REPRESENTATION(#800,#805);
#798=PRODUCT_DEFINITION_SHAPE('',$,#807);
#799=PRODUCT_DEFINITION_SHAPE('',$,#808);
#800=PRODUCT_DEFINITION_SHAPE('',$,#809);
#801=PRODUCT_DEFINITION_SHAPE($,$,#17);
#802=PRODUCT_DEFINITION_SHAPE($,$,#18);
#803=SHAPE_REPRESENTATION('',(#451,#516,#517),#787);
#804=SHAPE_REPRESENTATION('',(#452),#788);
#805=SHAPE_REPRESENTATION('',(#461),#789);
#806=PRODUCT_DEFINITION_CONTEXT('part definition',#817,'design');
#807=PRODUCT_DEFINITION(
'005028 polea GT2-16(rodamientos, sin dientes) (D.I:3mm)',
'005028 polea GT2-16(rodamientos, sin dientes) (D.I:3mm) v5',#810,#806);
#808=PRODUCT_DEFINITION('Component1','Component1',#811,#806);
#809=PRODUCT_DEFINITION('Component2','Component2',#812,#806);
#810=PRODUCT_DEFINITION_FORMATION('',$,#819);
#811=PRODUCT_DEFINITION_FORMATION('',$,#820);
#812=PRODUCT_DEFINITION_FORMATION('',$,#821);
#813=PRODUCT_RELATED_PRODUCT_CATEGORY(
'005028 polea GT2-16(rodamientos, sin dientes) (D.I:3mm) v5',
'005028 polea GT2-16(rodamientos, sin dientes) (D.I:3mm) v5',(#819));
#814=PRODUCT_RELATED_PRODUCT_CATEGORY('Component1','Component1',(#820));
#815=PRODUCT_RELATED_PRODUCT_CATEGORY('Component2','Component2',(#821));
#816=APPLICATION_PROTOCOL_DEFINITION('international standard',
'automotive_design',2009,#817);
#817=APPLICATION_CONTEXT(
'Core Data for Automotive Mechanical Design Process');
#818=PRODUCT_CONTEXT('part definition',#817,'mechanical');
#819=PRODUCT('005028 polea GT2-16(rodamientos, sin dientes) (D.I:3mm)',
'005028 polea GT2-16(rodamientos, sin dientes) (D.I:3mm) v5',$,(#818));
#820=PRODUCT('Component1','Component1',$,(#818));
#821=PRODUCT('Component2','Component2',$,(#818));
#822=PRESENTATION_STYLE_ASSIGNMENT((#824));
#823=PRESENTATION_STYLE_ASSIGNMENT((#825));
#824=SURFACE_STYLE_USAGE(.BOTH.,#826);
#825=SURFACE_STYLE_USAGE(.BOTH.,#827);
#826=SURFACE_SIDE_STYLE('',(#828));
#827=SURFACE_SIDE_STYLE('',(#829));
#828=SURFACE_STYLE_FILL_AREA(#830);
#829=SURFACE_STYLE_FILL_AREA(#831);
#830=FILL_AREA_STYLE('Steel - Satin',(#832));
#831=FILL_AREA_STYLE('Aluminum - Bead Blasted',(#833));
#832=FILL_AREA_STYLE_COLOUR('Steel - Satin',#834);
#833=FILL_AREA_STYLE_COLOUR('Aluminum - Bead Blasted',#835);
#834=COLOUR_RGB('Steel - Satin',0.627450980392157,0.627450980392157,0.627450980392157);
#835=COLOUR_RGB('Aluminum - Bead Blasted',0.619607843137255,0.619607843137255,
0.619607843137255);
ENDSEC;
END-ISO-10303-21;
